(kicad_sch (version 20230121) (generator eeschema)

  (uuid 446bdc7b-ddaa-4079-95fc-22f1dca32525)

  (paper "A4")

  (lib_symbols
    (symbol "Connector_Generic:Conn_01x10" (pin_names (offset 1.016) hide) (in_bom yes) (on_board yes)
      (property "Reference" "J" (at 0 12.7 0)
        (effects (font (size 1.27 1.27)))
      )
      (property "Value" "Conn_01x10" (at 0 -15.24 0)
        (effects (font (size 1.27 1.27)))
      )
      (property "Footprint" "" (at 0 0 0)
        (effects (font (size 1.27 1.27)) hide)
      )
      (property "Datasheet" "~" (at 0 0 0)
        (effects (font (size 1.27 1.27)) hide)
      )
      (property "ki_keywords" "connector" (at 0 0 0)
        (effects (font (size 1.27 1.27)) hide)
      )
      (property "ki_description" "Generic connector, single row, 01x10, script generated (kicad-library-utils/schlib/autogen/connector/)" (at 0 0 0)
        (effects (font (size 1.27 1.27)) hide)
      )
      (property "ki_fp_filters" "Connector*:*_1x??_*" (at 0 0 0)
        (effects (font (size 1.27 1.27)) hide)
      )
      (symbol "Conn_01x10_1_1"
        (rectangle (start -1.27 -12.573) (end 0 -12.827)
          (stroke (width 0.1524) (type default))
          (fill (type none))
        )
        (rectangle (start -1.27 -10.033) (end 0 -10.287)
          (stroke (width 0.1524) (type default))
          (fill (type none))
        )
        (rectangle (start -1.27 -7.493) (end 0 -7.747)
          (stroke (width 0.1524) (type default))
          (fill (type none))
        )
        (rectangle (start -1.27 -4.953) (end 0 -5.207)
          (stroke (width 0.1524) (type default))
          (fill (type none))
        )
        (rectangle (start -1.27 -2.413) (end 0 -2.667)
          (stroke (width 0.1524) (type default))
          (fill (type none))
        )
        (rectangle (start -1.27 0.127) (end 0 -0.127)
          (stroke (width 0.1524) (type default))
          (fill (type none))
        )
        (rectangle (start -1.27 2.667) (end 0 2.413)
          (stroke (width 0.1524) (type default))
          (fill (type none))
        )
        (rectangle (start -1.27 5.207) (end 0 4.953)
          (stroke (width 0.1524) (type default))
          (fill (type none))
        )
        (rectangle (start -1.27 7.747) (end 0 7.493)
          (stroke (width 0.1524) (type default))
          (fill (type none))
        )
        (rectangle (start -1.27 10.287) (end 0 10.033)
          (stroke (width 0.1524) (type default))
          (fill (type none))
        )
        (rectangle (start -1.27 11.43) (end 1.27 -13.97)
          (stroke (width 0.254) (type default))
          (fill (type background))
        )
        (pin passive line (at -5.08 10.16 0) (length 3.81)
          (name "Pin_1" (effects (font (size 1.27 1.27))))
          (number "1" (effects (font (size 1.27 1.27))))
        )
        (pin passive line (at -5.08 -12.7 0) (length 3.81)
          (name "Pin_10" (effects (font (size 1.27 1.27))))
          (number "10" (effects (font (size 1.27 1.27))))
        )
        (pin passive line (at -5.08 7.62 0) (length 3.81)
          (name "Pin_2" (effects (font (size 1.27 1.27))))
          (number "2" (effects (font (size 1.27 1.27))))
        )
        (pin passive line (at -5.08 5.08 0) (length 3.81)
          (name "Pin_3" (effects (font (size 1.27 1.27))))
          (number "3" (effects (font (size 1.27 1.27))))
        )
        (pin passive line (at -5.08 2.54 0) (length 3.81)
          (name "Pin_4" (effects (font (size 1.27 1.27))))
          (number "4" (effects (font (size 1.27 1.27))))
        )
        (pin passive line (at -5.08 0 0) (length 3.81)
          (name "Pin_5" (effects (font (size 1.27 1.27))))
          (number "5" (effects (font (size 1.27 1.27))))
        )
        (pin passive line (at -5.08 -2.54 0) (length 3.81)
          (name "Pin_6" (effects (font (size 1.27 1.27))))
          (number "6" (effects (font (size 1.27 1.27))))
        )
        (pin passive line (at -5.08 -5.08 0) (length 3.81)
          (name "Pin_7" (effects (font (size 1.27 1.27))))
          (number "7" (effects (font (size 1.27 1.27))))
        )
        (pin passive line (at -5.08 -7.62 0) (length 3.81)
          (name "Pin_8" (effects (font (size 1.27 1.27))))
          (number "8" (effects (font (size 1.27 1.27))))
        )
        (pin passive line (at -5.08 -10.16 0) (length 3.81)
          (name "Pin_9" (effects (font (size 1.27 1.27))))
          (number "9" (effects (font (size 1.27 1.27))))
        )
      )
    )
    (symbol "Connector_Generic:Conn_02x04_Odd_Even" (pin_names (offset 1.016) hide) (in_bom yes) (on_board yes)
      (property "Reference" "J" (at 1.27 5.08 0)
        (effects (font (size 1.27 1.27)))
      )
      (property "Value" "Conn_02x04_Odd_Even" (at 1.27 -7.62 0)
        (effects (font (size 1.27 1.27)))
      )
      (property "Footprint" "" (at 0 0 0)
        (effects (font (size 1.27 1.27)) hide)
      )
      (property "Datasheet" "~" (at 0 0 0)
        (effects (font (size 1.27 1.27)) hide)
      )
      (property "ki_keywords" "connector" (at 0 0 0)
        (effects (font (size 1.27 1.27)) hide)
      )
      (property "ki_description" "Generic connector, double row, 02x04, odd/even pin numbering scheme (row 1 odd numbers, row 2 even numbers), script generated (kicad-library-utils/schlib/autogen/connector/)" (at 0 0 0)
        (effects (font (size 1.27 1.27)) hide)
      )
      (property "ki_fp_filters" "Connector*:*_2x??_*" (at 0 0 0)
        (effects (font (size 1.27 1.27)) hide)
      )
      (symbol "Conn_02x04_Odd_Even_1_1"
        (rectangle (start -1.27 -4.953) (end 0 -5.207)
          (stroke (width 0.1524) (type default))
          (fill (type none))
        )
        (rectangle (start -1.27 -2.413) (end 0 -2.667)
          (stroke (width 0.1524) (type default))
          (fill (type none))
        )
        (rectangle (start -1.27 0.127) (end 0 -0.127)
          (stroke (width 0.1524) (type default))
          (fill (type none))
        )
        (rectangle (start -1.27 2.667) (end 0 2.413)
          (stroke (width 0.1524) (type default))
          (fill (type none))
        )
        (rectangle (start -1.27 3.81) (end 3.81 -6.35)
          (stroke (width 0.254) (type default))
          (fill (type background))
        )
        (rectangle (start 3.81 -4.953) (end 2.54 -5.207)
          (stroke (width 0.1524) (type default))
          (fill (type none))
        )
        (rectangle (start 3.81 -2.413) (end 2.54 -2.667)
          (stroke (width 0.1524) (type default))
          (fill (type none))
        )
        (rectangle (start 3.81 0.127) (end 2.54 -0.127)
          (stroke (width 0.1524) (type default))
          (fill (type none))
        )
        (rectangle (start 3.81 2.667) (end 2.54 2.413)
          (stroke (width 0.1524) (type default))
          (fill (type none))
        )
        (pin passive line (at -5.08 2.54 0) (length 3.81)
          (name "Pin_1" (effects (font (size 1.27 1.27))))
          (number "1" (effects (font (size 1.27 1.27))))
        )
        (pin passive line (at 7.62 2.54 180) (length 3.81)
          (name "Pin_2" (effects (font (size 1.27 1.27))))
          (number "2" (effects (font (size 1.27 1.27))))
        )
        (pin passive line (at -5.08 0 0) (length 3.81)
          (name "Pin_3" (effects (font (size 1.27 1.27))))
          (number "3" (effects (font (size 1.27 1.27))))
        )
        (pin passive line (at 7.62 0 180) (length 3.81)
          (name "Pin_4" (effects (font (size 1.27 1.27))))
          (number "4" (effects (font (size 1.27 1.27))))
        )
        (pin passive line (at -5.08 -2.54 0) (length 3.81)
          (name "Pin_5" (effects (font (size 1.27 1.27))))
          (number "5" (effects (font (size 1.27 1.27))))
        )
        (pin passive line (at 7.62 -2.54 180) (length 3.81)
          (name "Pin_6" (effects (font (size 1.27 1.27))))
          (number "6" (effects (font (size 1.27 1.27))))
        )
        (pin passive line (at -5.08 -5.08 0) (length 3.81)
          (name "Pin_7" (effects (font (size 1.27 1.27))))
          (number "7" (effects (font (size 1.27 1.27))))
        )
        (pin passive line (at 7.62 -5.08 180) (length 3.81)
          (name "Pin_8" (effects (font (size 1.27 1.27))))
          (number "8" (effects (font (size 1.27 1.27))))
        )
      )
    )
    (symbol "Device:C_Small" (pin_numbers hide) (pin_names (offset 0.254) hide) (in_bom yes) (on_board yes)
      (property "Reference" "C" (at 0.254 1.778 0)
        (effects (font (size 1.27 1.27)) (justify left))
      )
      (property "Value" "C_Small" (at 0.254 -2.032 0)
        (effects (font (size 1.27 1.27)) (justify left))
      )
      (property "Footprint" "" (at 0 0 0)
        (effects (font (size 1.27 1.27)) hide)
      )
      (property "Datasheet" "~" (at 0 0 0)
        (effects (font (size 1.27 1.27)) hide)
      )
      (property "ki_keywords" "capacitor cap" (at 0 0 0)
        (effects (font (size 1.27 1.27)) hide)
      )
      (property "ki_description" "Unpolarized capacitor, small symbol" (at 0 0 0)
        (effects (font (size 1.27 1.27)) hide)
      )
      (property "ki_fp_filters" "C_*" (at 0 0 0)
        (effects (font (size 1.27 1.27)) hide)
      )
      (symbol "C_Small_0_1"
        (polyline
          (pts
            (xy -1.524 -0.508)
            (xy 1.524 -0.508)
          )
          (stroke (width 0.3302) (type default))
          (fill (type none))
        )
        (polyline
          (pts
            (xy -1.524 0.508)
            (xy 1.524 0.508)
          )
          (stroke (width 0.3048) (type default))
          (fill (type none))
        )
      )
      (symbol "C_Small_1_1"
        (pin passive line (at 0 2.54 270) (length 2.032)
          (name "~" (effects (font (size 1.27 1.27))))
          (number "1" (effects (font (size 1.27 1.27))))
        )
        (pin passive line (at 0 -2.54 90) (length 2.032)
          (name "~" (effects (font (size 1.27 1.27))))
          (number "2" (effects (font (size 1.27 1.27))))
        )
      )
    )
    (symbol "Jumper:SolderJumper_3_Open" (pin_names (offset 0) hide) (in_bom yes) (on_board yes)
      (property "Reference" "JP" (at -2.54 -2.54 0)
        (effects (font (size 1.27 1.27)))
      )
      (property "Value" "SolderJumper_3_Open" (at 0 2.794 0)
        (effects (font (size 1.27 1.27)))
      )
      (property "Footprint" "" (at 0 0 0)
        (effects (font (size 1.27 1.27)) hide)
      )
      (property "Datasheet" "~" (at 0 0 0)
        (effects (font (size 1.27 1.27)) hide)
      )
      (property "ki_keywords" "Solder Jumper SPDT" (at 0 0 0)
        (effects (font (size 1.27 1.27)) hide)
      )
      (property "ki_description" "Solder Jumper, 3-pole, open" (at 0 0 0)
        (effects (font (size 1.27 1.27)) hide)
      )
      (property "ki_fp_filters" "SolderJumper*Open*" (at 0 0 0)
        (effects (font (size 1.27 1.27)) hide)
      )
      (symbol "SolderJumper_3_Open_0_1"
        (arc (start -1.016 1.016) (mid -2.0276 0) (end -1.016 -1.016)
          (stroke (width 0) (type default))
          (fill (type none))
        )
        (arc (start -1.016 1.016) (mid -2.0276 0) (end -1.016 -1.016)
          (stroke (width 0) (type default))
          (fill (type outline))
        )
        (rectangle (start -0.508 1.016) (end 0.508 -1.016)
          (stroke (width 0) (type default))
          (fill (type outline))
        )
        (polyline
          (pts
            (xy -2.54 0)
            (xy -2.032 0)
          )
          (stroke (width 0) (type default))
          (fill (type none))
        )
        (polyline
          (pts
            (xy -1.016 1.016)
            (xy -1.016 -1.016)
          )
          (stroke (width 0) (type default))
          (fill (type none))
        )
        (polyline
          (pts
            (xy 0 -1.27)
            (xy 0 -1.016)
          )
          (stroke (width 0) (type default))
          (fill (type none))
        )
        (polyline
          (pts
            (xy 1.016 1.016)
            (xy 1.016 -1.016)
          )
          (stroke (width 0) (type default))
          (fill (type none))
        )
        (polyline
          (pts
            (xy 2.54 0)
            (xy 2.032 0)
          )
          (stroke (width 0) (type default))
          (fill (type none))
        )
        (arc (start 1.016 -1.016) (mid 2.0276 0) (end 1.016 1.016)
          (stroke (width 0) (type default))
          (fill (type none))
        )
        (arc (start 1.016 -1.016) (mid 2.0276 0) (end 1.016 1.016)
          (stroke (width 0) (type default))
          (fill (type outline))
        )
      )
      (symbol "SolderJumper_3_Open_1_1"
        (pin passive line (at -5.08 0 0) (length 2.54)
          (name "A" (effects (font (size 1.27 1.27))))
          (number "1" (effects (font (size 1.27 1.27))))
        )
        (pin passive line (at 0 -3.81 90) (length 2.54)
          (name "C" (effects (font (size 1.27 1.27))))
          (number "2" (effects (font (size 1.27 1.27))))
        )
        (pin passive line (at 5.08 0 180) (length 2.54)
          (name "B" (effects (font (size 1.27 1.27))))
          (number "3" (effects (font (size 1.27 1.27))))
        )
      )
    )
    (symbol "Mechanical:MountingHole" (pin_names (offset 1.016)) (in_bom yes) (on_board yes)
      (property "Reference" "H" (at 0 5.08 0)
        (effects (font (size 1.27 1.27)))
      )
      (property "Value" "MountingHole" (at 0 3.175 0)
        (effects (font (size 1.27 1.27)))
      )
      (property "Footprint" "" (at 0 0 0)
        (effects (font (size 1.27 1.27)) hide)
      )
      (property "Datasheet" "~" (at 0 0 0)
        (effects (font (size 1.27 1.27)) hide)
      )
      (property "ki_keywords" "mounting hole" (at 0 0 0)
        (effects (font (size 1.27 1.27)) hide)
      )
      (property "ki_description" "Mounting Hole without connection" (at 0 0 0)
        (effects (font (size 1.27 1.27)) hide)
      )
      (property "ki_fp_filters" "MountingHole*" (at 0 0 0)
        (effects (font (size 1.27 1.27)) hide)
      )
      (symbol "MountingHole_0_1"
        (circle (center 0 0) (radius 1.27)
          (stroke (width 1.27) (type default))
          (fill (type none))
        )
      )
    )
    (symbol "sharp_memory_display-rescue:power_PWR_FLAG-nrfmicro-cache" (power) (pin_numbers hide) (pin_names (offset 0) hide) (in_bom yes) (on_board yes)
      (property "Reference" "#FLG" (at 0 1.905 0)
        (effects (font (size 1.27 1.27)) hide)
      )
      (property "Value" "power_PWR_FLAG-nrfmicro-cache" (at 0 3.81 0)
        (effects (font (size 1.27 1.27)))
      )
      (property "Footprint" "" (at 0 0 0)
        (effects (font (size 1.27 1.27)) hide)
      )
      (property "Datasheet" "" (at 0 0 0)
        (effects (font (size 1.27 1.27)) hide)
      )
      (symbol "power_PWR_FLAG-nrfmicro-cache_0_0"
        (pin power_out line (at 0 0 90) (length 0)
          (name "pwr" (effects (font (size 1.27 1.27))))
          (number "1" (effects (font (size 1.27 1.27))))
        )
      )
      (symbol "power_PWR_FLAG-nrfmicro-cache_0_1"
        (polyline
          (pts
            (xy 0 0)
            (xy 0 1.27)
            (xy -1.016 1.905)
            (xy 0 2.54)
            (xy 1.016 1.905)
            (xy 0 1.27)
          )
          (stroke (width 0) (type default))
          (fill (type none))
        )
      )
    )
  )

  (junction (at 187.96 92.71) (diameter 0) (color 0 0 0 0)
    (uuid 0afb4cc3-4376-4c11-9715-0aadb5c70a72)
  )
  (junction (at 187.96 87.63) (diameter 0) (color 0 0 0 0)
    (uuid 17dabac9-b74e-4e5f-930a-c1e0cb95115c)
  )
  (junction (at 177.8 85.09) (diameter 1.016) (color 0 0 0 0)
    (uuid 4d455f97-cfd5-4505-b732-d1223c0fbf28)
  )
  (junction (at 167.64 82.55) (diameter 0) (color 0 0 0 0)
    (uuid 8e2ad796-4f56-4988-ae8b-4621f39656b0)
  )

  (no_connect (at 78.74 75.946) (uuid 9b4af393-3f86-4555-9835-3e640697976d))
  (no_connect (at 66.04 78.486) (uuid f58aca3a-5ad5-403c-9fa2-ee1383ff7364))

  (wire (pts (xy 198.12 95.25) (xy 208.28 95.25))
    (stroke (width 0) (type solid))
    (uuid 0d79c12a-cbb7-49b2-a4e1-323f400b73f9)
  )
  (wire (pts (xy 187.96 92.71) (xy 208.28 92.71))
    (stroke (width 0) (type default))
    (uuid 11e03f92-d1bd-48b2-8c70-940b1af032dd)
  )
  (wire (pts (xy 166.37 125.73) (xy 166.37 129.54))
    (stroke (width 0) (type default))
    (uuid 3b3f147c-0855-4e3d-aa55-19a9baf49165)
  )
  (wire (pts (xy 172.72 73.66) (xy 172.72 78.74))
    (stroke (width 0) (type default))
    (uuid 3fd0ead6-5abb-47ce-81be-a5c6eb2849a1)
  )
  (wire (pts (xy 177.8 77.47) (xy 177.8 85.09))
    (stroke (width 0) (type solid))
    (uuid 41a0f4fa-6206-463c-9092-e288acda5d91)
  )
  (wire (pts (xy 177.8 90.17) (xy 177.8 85.09))
    (stroke (width 0) (type default))
    (uuid 67cad8c5-35aa-42e7-8878-fe1fee7d97e0)
  )
  (wire (pts (xy 208.28 85.09) (xy 177.8 85.09))
    (stroke (width 0) (type solid))
    (uuid 793def94-ba38-4572-b1ae-730a54f2f72b)
  )
  (wire (pts (xy 167.64 87.63) (xy 167.64 99.06))
    (stroke (width 0) (type solid))
    (uuid 829f699c-d324-416a-a034-2227ab355173)
  )
  (wire (pts (xy 167.64 82.55) (xy 208.28 82.55))
    (stroke (width 0) (type solid))
    (uuid 89e17b4b-52f2-4d98-95c3-80dfd5464032)
  )
  (wire (pts (xy 187.96 92.71) (xy 187.96 101.6))
    (stroke (width 0) (type solid))
    (uuid 8a82d978-bbf4-4d49-a040-7ceae6d66547)
  )
  (wire (pts (xy 161.29 125.73) (xy 161.29 129.54))
    (stroke (width 0) (type default))
    (uuid 932da0ba-bb36-47c7-8de8-a9e0365b6a39)
  )
  (wire (pts (xy 208.28 87.63) (xy 187.96 87.63))
    (stroke (width 0) (type solid))
    (uuid 97c7ed51-7f84-4b1d-8ee5-ec1b1c189714)
  )
  (wire (pts (xy 177.8 95.25) (xy 177.8 99.06))
    (stroke (width 0) (type solid))
    (uuid bf4bb765-8d5d-4b0a-a591-004a8acdfb23)
  )
  (wire (pts (xy 187.96 77.47) (xy 187.96 87.63))
    (stroke (width 0) (type solid))
    (uuid c3f05442-76fd-4cbc-8907-7cf8a7089b16)
  )
  (wire (pts (xy 198.12 95.25) (xy 198.12 100.33))
    (stroke (width 0) (type default))
    (uuid e62d4d7b-6239-4306-ad92-e157a888a6a3)
  )
  (wire (pts (xy 162.56 73.66) (xy 162.56 78.74))
    (stroke (width 0) (type default))
    (uuid ef7feefd-4d59-4f9d-9be7-4f320d12d548)
  )
  (wire (pts (xy 185.42 114.3) (xy 185.42 129.54))
    (stroke (width 0) (type solid))
    (uuid f2c9f3c8-1236-409e-868c-934a4a15d5f2)
  )
  (wire (pts (xy 194.31 114.3) (xy 194.31 129.54))
    (stroke (width 0) (type solid))
    (uuid f3fb76a9-5e33-4fc4-8187-83408534712c)
  )

  (global_label "3V3" (shape input) (at 140.97 133.35 180) (fields_autoplaced)
    (effects (font (size 1.27 1.27)) (justify right))
    (uuid 0b505b9a-0ca6-450f-8d60-b88a46b5bb30)
    (property "Intersheetrefs" "${INTERSHEET_REFS}" (at 134.5566 133.35 0)
      (effects (font (size 1.27 1.27)) (justify right) hide)
    )
  )
  (global_label "VDD" (shape input) (at 208.28 87.63 180) (fields_autoplaced)
    (effects (font (size 1.27 1.27)) (justify right))
    (uuid 1038c07d-8404-477f-b0c9-8569865e4332)
    (property "Intersheetrefs" "${INTERSHEET_REFS}" (at 202.3998 87.63 0)
      (effects (font (size 1.27 1.27)) (justify right) hide)
    )
  )
  (global_label "CS" (shape input) (at 78.74 78.486 0) (fields_autoplaced)
    (effects (font (size 1.27 1.27)) (justify left))
    (uuid 1c8e6e42-d04b-479a-8157-475578fca30e)
    (property "Intersheetrefs" "${INTERSHEET_REFS}" (at 84.2047 78.486 0)
      (effects (font (size 1.27 1.27)) (justify left) hide)
    )
  )
  (global_label "EXTCOMIN" (shape input) (at 194.31 114.3 0) (fields_autoplaced)
    (effects (font (size 1.27 1.27)) (justify left))
    (uuid 1d235a2c-9fc8-4e37-bd52-a511e0ef7837)
    (property "Intersheetrefs" "${INTERSHEET_REFS}" (at -31.75 21.59 0)
      (effects (font (size 1.27 1.27)) hide)
    )
  )
  (global_label "agnd" (shape input) (at 161.29 129.54 270) (fields_autoplaced)
    (effects (font (size 1.27 1.27)) (justify right))
    (uuid 214dc5a4-83b7-4d6c-86ab-155904875736)
    (property "Intersheetrefs" "${INTERSHEET_REFS}" (at 161.29 137.0418 90)
      (effects (font (size 1.27 1.27)) (justify right) hide)
    )
  )
  (global_label "VSS" (shape input) (at 194.31 129.54 270) (fields_autoplaced)
    (effects (font (size 1.27 1.27)) (justify right))
    (uuid 29bb4bc2-80b6-4316-abb4-65747048b02d)
    (property "Intersheetrefs" "${INTERSHEET_REFS}" (at 194.31 135.9534 90)
      (effects (font (size 1.27 1.27)) (justify right) hide)
    )
  )
  (global_label "Cdisp" (shape input) (at 66.04 75.946 180) (fields_autoplaced)
    (effects (font (size 1.27 1.27)) (justify right))
    (uuid 31d0f022-c574-4c5b-8858-a34d865316ee)
    (property "Intersheetrefs" "${INTERSHEET_REFS}" (at 57.9333 75.946 0)
      (effects (font (size 1.27 1.27)) (justify right) hide)
    )
  )
  (global_label "VSS" (shape input) (at 208.28 92.71 180) (fields_autoplaced)
    (effects (font (size 1.27 1.27)) (justify right))
    (uuid 37cb1e86-47a2-41f2-ac46-26c6fb27ae12)
    (property "Intersheetrefs" "${INTERSHEET_REFS}" (at 202.5208 92.71 0)
      (effects (font (size 1.27 1.27)) (justify right) hide)
    )
  )
  (global_label "gnd" (shape input) (at 140.97 121.92 180) (fields_autoplaced)
    (effects (font (size 1.27 1.27)) (justify right))
    (uuid 433697dd-775d-40d1-8e2f-7cf777757a4e)
    (property "Intersheetrefs" "${INTERSHEET_REFS}" (at 134.6172 121.92 0)
      (effects (font (size 1.27 1.27)) (justify right) hide)
    )
  )
  (global_label "gnd" (shape input) (at 167.64 99.06 270) (fields_autoplaced)
    (effects (font (size 1.27 1.27)) (justify right))
    (uuid 4e2866f3-ccce-442b-ae17-b63f0875aef1)
    (property "Intersheetrefs" "${INTERSHEET_REFS}" (at 167.64 105.4128 90)
      (effects (font (size 1.27 1.27)) (justify right) hide)
    )
  )
  (global_label "3V3" (shape input) (at 187.96 77.47 90) (fields_autoplaced)
    (effects (font (size 1.27 1.27)) (justify left))
    (uuid 75dbdc3c-bf99-418a-abbf-aa3732b88d77)
    (property "Intersheetrefs" "${INTERSHEET_REFS}" (at 187.96 71.0566 90)
      (effects (font (size 1.27 1.27)) (justify left) hide)
    )
  )
  (global_label "3V3" (shape input) (at 166.37 125.73 90) (fields_autoplaced)
    (effects (font (size 1.27 1.27)) (justify left))
    (uuid 7cd11f3c-b670-415a-b230-698c1db6e7b6)
    (property "Intersheetrefs" "${INTERSHEET_REFS}" (at 166.37 119.3166 90)
      (effects (font (size 1.27 1.27)) (justify left) hide)
    )
  )
  (global_label "EXTMODE" (shape input) (at 185.42 114.3 180) (fields_autoplaced)
    (effects (font (size 1.27 1.27)) (justify right))
    (uuid 8148d010-037e-4220-8a9f-b1686f2f8f68)
    (property "Intersheetrefs" "${INTERSHEET_REFS}" (at -31.75 21.59 0)
      (effects (font (size 1.27 1.27)) hide)
    )
  )
  (global_label "MOSI" (shape input) (at 78.74 81.026 0) (fields_autoplaced)
    (effects (font (size 1.27 1.27)) (justify left))
    (uuid 8363219c-8044-4a04-94ea-5f72bd81c055)
    (property "Intersheetrefs" "${INTERSHEET_REFS}" (at 86.3214 81.026 0)
      (effects (font (size 1.27 1.27)) (justify left) hide)
    )
  )
  (global_label "agnd" (shape input) (at 177.8 99.06 270) (fields_autoplaced)
    (effects (font (size 1.27 1.27)) (justify right))
    (uuid 8363fcf0-3fcc-4f47-b132-e19835c6ffe0)
    (property "Intersheetrefs" "${INTERSHEET_REFS}" (at 177.8 106.5618 90)
      (effects (font (size 1.27 1.27)) (justify right) hide)
    )
  )
  (global_label "SCLK" (shape input) (at 208.28 72.39 180) (fields_autoplaced)
    (effects (font (size 1.27 1.27)) (justify right))
    (uuid 89d3c5b0-0abf-4ddd-8299-1b8ad4289d72)
    (property "Intersheetrefs" "${INTERSHEET_REFS}" (at 201.2508 72.39 0)
      (effects (font (size 1.27 1.27)) (justify right) hide)
    )
  )
  (global_label "VSSA" (shape input) (at 208.28 95.25 180) (fields_autoplaced)
    (effects (font (size 1.27 1.27)) (justify right))
    (uuid 89e6fa78-663a-4632-afdb-bb3072caaede)
    (property "Intersheetrefs" "${INTERSHEET_REFS}" (at 201.4322 95.25 0)
      (effects (font (size 1.27 1.27)) (justify right) hide)
    )
  )
  (global_label "MOSI" (shape input) (at 208.28 74.93 180) (fields_autoplaced)
    (effects (font (size 1.27 1.27)) (justify right))
    (uuid 8c3f7dc6-59bc-47e2-9311-312d11254fef)
    (property "Intersheetrefs" "${INTERSHEET_REFS}" (at 200.778 74.93 0)
      (effects (font (size 1.27 1.27)) (justify right) hide)
    )
  )
  (global_label "gnd" (shape input) (at 187.96 101.6 270) (fields_autoplaced)
    (effects (font (size 1.27 1.27)) (justify right))
    (uuid 9fe1da4e-82e3-4489-8463-19f0e9518480)
    (property "Intersheetrefs" "${INTERSHEET_REFS}" (at 187.96 107.9528 90)
      (effects (font (size 1.27 1.27)) (justify right) hide)
    )
  )
  (global_label "VDDA" (shape input) (at 208.28 85.09 180) (fields_autoplaced)
    (effects (font (size 1.27 1.27)) (justify right))
    (uuid a3adeebf-8fd7-4983-a520-98ef63624747)
    (property "Intersheetrefs" "${INTERSHEET_REFS}" (at 201.3112 85.09 0)
      (effects (font (size 1.27 1.27)) (justify right) hide)
    )
  )
  (global_label "avdd" (shape input) (at 177.8 77.47 90) (fields_autoplaced)
    (effects (font (size 1.27 1.27)) (justify left))
    (uuid a3c645b5-5700-4243-bf68-169a0b722f75)
    (property "Intersheetrefs" "${INTERSHEET_REFS}" (at 177.8 70.1496 90)
      (effects (font (size 1.27 1.27)) (justify left) hide)
    )
  )
  (global_label "DISP" (shape input) (at 208.28 82.55 180) (fields_autoplaced)
    (effects (font (size 1.27 1.27)) (justify right))
    (uuid aee31634-2298-4224-93da-48b065ab871e)
    (property "Intersheetrefs" "${INTERSHEET_REFS}" (at 201.6741 82.55 0)
      (effects (font (size 1.27 1.27)) (justify right) hide)
    )
  )
  (global_label "SCLK" (shape input) (at 66.04 81.026 180) (fields_autoplaced)
    (effects (font (size 1.27 1.27)) (justify right))
    (uuid afd7ae10-f177-41a5-b218-03d26d1ccbd3)
    (property "Intersheetrefs" "${INTERSHEET_REFS}" (at -30.48 -7.874 0)
      (effects (font (size 1.27 1.27)) hide)
    )
  )
  (global_label "CS" (shape input) (at 208.28 77.47 180) (fields_autoplaced)
    (effects (font (size 1.27 1.27)) (justify right))
    (uuid b03f5d2c-5c49-4d7b-945a-7cd11d7a13f3)
    (property "Intersheetrefs" "${INTERSHEET_REFS}" (at 202.8947 77.47 0)
      (effects (font (size 1.27 1.27)) (justify right) hide)
    )
  )
  (global_label "EXTCOMIN" (shape input) (at 208.28 80.01 180) (fields_autoplaced)
    (effects (font (size 1.27 1.27)) (justify right))
    (uuid b65dfcfe-885e-4c39-ad53-b11fc14ccf04)
    (property "Intersheetrefs" "${INTERSHEET_REFS}" (at 196.7151 80.01 0)
      (effects (font (size 1.27 1.27)) (justify right) hide)
    )
  )
  (global_label "Cdisp" (shape input) (at 162.56 73.66 90) (fields_autoplaced)
    (effects (font (size 1.27 1.27)) (justify left))
    (uuid c75f7c27-dd2b-4e3f-907d-f206668b1090)
    (property "Intersheetrefs" "${INTERSHEET_REFS}" (at 162.56 65.5533 90)
      (effects (font (size 1.27 1.27)) (justify left) hide)
    )
  )
  (global_label "agnd" (shape input) (at 198.12 100.33 270) (fields_autoplaced)
    (effects (font (size 1.27 1.27)) (justify right))
    (uuid ccdf93bb-7ade-4aaa-87e5-6ef044262bef)
    (property "Intersheetrefs" "${INTERSHEET_REFS}" (at 198.12 107.8318 90)
      (effects (font (size 1.27 1.27)) (justify right) hide)
    )
  )
  (global_label "3V3" (shape input) (at 78.74 83.566 0) (fields_autoplaced)
    (effects (font (size 1.27 1.27)) (justify left))
    (uuid d291f42c-50c3-49f9-be64-4bb7ed2e536b)
    (property "Intersheetrefs" "${INTERSHEET_REFS}" (at 85.2328 83.566 0)
      (effects (font (size 1.27 1.27)) (justify left) hide)
    )
  )
  (global_label "VSS" (shape input) (at 185.42 129.54 270) (fields_autoplaced)
    (effects (font (size 1.27 1.27)) (justify right))
    (uuid df4e1271-76aa-46ea-a792-e7e17c5d756a)
    (property "Intersheetrefs" "${INTERSHEET_REFS}" (at 185.42 135.9534 90)
      (effects (font (size 1.27 1.27)) (justify right) hide)
    )
  )
  (global_label "gnd" (shape input) (at 161.29 125.73 90) (fields_autoplaced)
    (effects (font (size 1.27 1.27)) (justify left))
    (uuid e0c2177f-c503-4fb1-9d0f-a40e867bf4ab)
    (property "Intersheetrefs" "${INTERSHEET_REFS}" (at 161.29 119.3772 90)
      (effects (font (size 1.27 1.27)) (justify left) hide)
    )
  )
  (global_label "EXTMODE" (shape input) (at 208.28 90.17 180) (fields_autoplaced)
    (effects (font (size 1.27 1.27)) (justify right))
    (uuid e4034b77-c1d4-48c4-bc72-148140108251)
    (property "Intersheetrefs" "${INTERSHEET_REFS}" (at 197.5014 90.17 0)
      (effects (font (size 1.27 1.27)) (justify right) hide)
    )
  )
  (global_label "gnd" (shape input) (at 66.04 83.566 180) (fields_autoplaced)
    (effects (font (size 1.27 1.27)) (justify right))
    (uuid e82960dd-29c7-4bf0-bed7-ef9be6641234)
    (property "Intersheetrefs" "${INTERSHEET_REFS}" (at 59.6078 83.566 0)
      (effects (font (size 1.27 1.27)) (justify right) hide)
    )
  )
  (global_label "avdd" (shape input) (at 166.37 129.54 270) (fields_autoplaced)
    (effects (font (size 1.27 1.27)) (justify right))
    (uuid f25b89a2-37b6-4f3d-a6a3-541c73b45c82)
    (property "Intersheetrefs" "${INTERSHEET_REFS}" (at 166.37 136.8604 90)
      (effects (font (size 1.27 1.27)) (justify right) hide)
    )
  )
  (global_label "3V3" (shape input) (at 172.72 73.66 90) (fields_autoplaced)
    (effects (font (size 1.27 1.27)) (justify left))
    (uuid f8e0ac31-89a9-43b2-ba77-9839c9783ee6)
    (property "Intersheetrefs" "${INTERSHEET_REFS}" (at 172.72 67.2466 90)
      (effects (font (size 1.27 1.27)) (justify left) hide)
    )
  )

  (symbol (lib_id "Connector_Generic:Conn_02x04_Odd_Even") (at 71.12 78.486 0) (unit 1)
    (in_bom yes) (on_board yes) (dnp no) (fields_autoplaced)
    (uuid 201c1627-d9e0-4faa-a749-75025483864d)
    (property "Reference" "J2" (at 73.66 86.106 90)
      (effects (font (size 1.27 1.27)) (justify right))
    )
    (property "Value" "socket" (at 71.12 86.106 90)
      (effects (font (size 1.27 1.27)) (justify right))
    )
    (property "Footprint" "m65:096lcdconn-pins" (at 71.12 78.486 0)
      (effects (font (size 1.27 1.27)) hide)
    )
    (property "Datasheet" "~" (at 71.12 78.486 0)
      (effects (font (size 1.27 1.27)) hide)
    )
    (pin "1" (uuid b04accdb-e0b8-4317-9541-6a13a7169aec))
    (pin "2" (uuid ebe55add-4429-4ad2-b533-6cddbb0a40d8))
    (pin "3" (uuid aaf5cf14-0de9-4067-99e9-60c13744a7f1))
    (pin "4" (uuid 0ec15045-a19b-4864-9369-d534bed11803))
    (pin "5" (uuid b097cfa4-de80-4b61-9ab5-20af0bba512d))
    (pin "6" (uuid ce9aa668-79b1-45a9-9c67-e720473173db))
    (pin "7" (uuid 599a7a45-b190-46d8-a0b1-903b1f182e6f))
    (pin "8" (uuid 4f973e55-515b-416c-9476-dc823d2e6e2d))
    (instances
      (project "sharp-memory-displays"
        (path "/446bdc7b-ddaa-4079-95fc-22f1dca32525"
          (reference "J2") (unit 1)
        )
      )
      (project "096rgbips"
        (path "/ff82d621-ec2e-4ff5-a65a-6e005ff85cbf"
          (reference "J2") (unit 1)
        )
      )
    )
  )

  (symbol (lib_id "sharp_memory_display-rescue:power_PWR_FLAG-nrfmicro-cache") (at 140.97 133.35 0) (unit 1)
    (in_bom yes) (on_board yes) (dnp no)
    (uuid 56c63799-e008-4885-afc3-6ec60e70518e)
    (property "Reference" "#FLG04" (at 140.97 131.445 0)
      (effects (font (size 1.27 1.27)) hide)
    )
    (property "Value" "power_PWR_FLAG" (at 140.97 128.9558 0)
      (effects (font (size 1.27 1.27)))
    )
    (property "Footprint" "" (at 140.97 133.35 0)
      (effects (font (size 1.27 1.27)) hide)
    )
    (property "Datasheet" "" (at 140.97 133.35 0)
      (effects (font (size 1.27 1.27)) hide)
    )
    (pin "1" (uuid 4ff5d116-e4f3-467a-b149-9042983b65a1))
    (instances
      (project "sharp-memory-displays"
        (path "/446bdc7b-ddaa-4079-95fc-22f1dca32525"
          (reference "#FLG04") (unit 1)
        )
      )
      (project "sharp_memory_display"
        (path "/b4a413d2-2443-4387-b308-e1ddffeeba34"
          (reference "#FLG0103") (unit 1)
        )
      )
    )
  )

  (symbol (lib_id "Connector_Generic:Conn_01x10") (at 213.36 82.55 0) (unit 1)
    (in_bom yes) (on_board yes) (dnp no)
    (uuid 63a5070c-29bf-4c12-af4a-c671d8342eab)
    (property "Reference" "J1" (at 215.392 82.7532 0)
      (effects (font (size 1.27 1.27)) (justify left))
    )
    (property "Value" "Conn_01x10" (at 215.392 85.0646 0)
      (effects (font (size 1.27 1.27)) (justify left))
    )
    (property "Footprint" "Connector_FFC-FPC:Hirose_FH12-10S-0.5SH_1x10-1MP_P0.50mm_Horizontal" (at 213.36 82.55 0)
      (effects (font (size 1.27 1.27)) hide)
    )
    (property "Datasheet" "~" (at 213.36 82.55 0)
      (effects (font (size 1.27 1.27)) hide)
    )
    (property "LCSC" "C2856816" (at 213.36 82.55 0)
      (effects (font (size 1.27 1.27)) hide)
    )
    (property "LCSC Part #" "C2856816" (at 213.36 82.55 0)
      (effects (font (size 1.27 1.27)) hide)
    )
    (pin "1" (uuid 2aa0a5f8-9537-45a5-8f28-353fc7d7bf62))
    (pin "10" (uuid aae3bccb-ae48-44be-a38f-51d93d78b6a6))
    (pin "2" (uuid 2b8452c4-a264-4591-a7f9-b2c8a33c5145))
    (pin "3" (uuid 5ddad5f3-1597-4cf4-9ec2-552f80c1ed66))
    (pin "4" (uuid a3db0c94-58c8-4bbb-a002-da15f1557037))
    (pin "5" (uuid d379a247-90c8-4c82-b2dd-6d54e11c6094))
    (pin "6" (uuid 3ef7d9a7-2955-4d21-88a6-4b1871fff81c))
    (pin "7" (uuid 3d909e1e-1ba6-4dc9-83d0-d82cd988044c))
    (pin "8" (uuid 6ab98849-d610-4850-b0db-106ca7c87268))
    (pin "9" (uuid e1df258f-48e6-40d7-8c2f-0b8bdff0b0ef))
    (instances
      (project "sharp-memory-displays"
        (path "/446bdc7b-ddaa-4079-95fc-22f1dca32525"
          (reference "J1") (unit 1)
        )
      )
      (project "sharp_memory_display"
        (path "/b4a413d2-2443-4387-b308-e1ddffeeba34"
          (reference "J2") (unit 1)
        )
      )
    )
  )

  (symbol (lib_id "Mechanical:MountingHole") (at 78.74 113.03 0) (unit 1)
    (in_bom yes) (on_board yes) (dnp no)
    (uuid 79b0cf8c-d867-46e0-a3e6-1893190fa110)
    (property "Reference" "H2" (at 81.28 111.8616 0)
      (effects (font (size 1.27 1.27)) (justify left))
    )
    (property "Value" "MountingHole" (at 81.28 114.173 0)
      (effects (font (size 1.27 1.27)) (justify left))
    )
    (property "Footprint" "MountingHole:MountingHole_3mm" (at 78.74 113.03 0)
      (effects (font (size 1.27 1.27)) hide)
    )
    (property "Datasheet" "~" (at 78.74 113.03 0)
      (effects (font (size 1.27 1.27)) hide)
    )
    (instances
      (project "sharp-memory-displays"
        (path "/446bdc7b-ddaa-4079-95fc-22f1dca32525"
          (reference "H2") (unit 1)
        )
      )
      (project "sharp_memory_display"
        (path "/b4a413d2-2443-4387-b308-e1ddffeeba34"
          (reference "H3") (unit 1)
        )
      )
    )
  )

  (symbol (lib_id "Device:C_Small") (at 167.64 85.09 180) (unit 1)
    (in_bom yes) (on_board yes) (dnp no)
    (uuid 819515e3-c88b-47eb-9aab-ad4d3f43fb79)
    (property "Reference" "C1" (at 168.91 82.55 0)
      (effects (font (size 1.27 1.27)) (justify left))
    )
    (property "Value" "~" (at 173.99 80.01 0)
      (effects (font (size 1.27 1.27)) (justify left))
    )
    (property "Footprint" "m65:C-1206_3216Metric_Pad1.33x1.80mm_HandSolder-long" (at 167.64 85.09 0)
      (effects (font (size 1.27 1.27)) hide)
    )
    (property "Datasheet" "~" (at 167.64 85.09 0)
      (effects (font (size 1.27 1.27)) hide)
    )
    (property "LCSC" "C24497" (at 167.64 85.09 0)
      (effects (font (size 1.27 1.27)) hide)
    )
    (property "LCSC Part #" "C24497" (at 167.64 85.09 0)
      (effects (font (size 1.27 1.27)) hide)
    )
    (pin "1" (uuid b359983d-8b6a-4c0a-8c84-12c27b898d7a))
    (pin "2" (uuid 3f908743-44ea-4575-a11b-3fe6a886e4c5))
    (instances
      (project "sharp-memory-displays"
        (path "/446bdc7b-ddaa-4079-95fc-22f1dca32525"
          (reference "C1") (unit 1)
        )
      )
      (project "sharp_memory_display"
        (path "/b4a413d2-2443-4387-b308-e1ddffeeba34"
          (reference "C1") (unit 1)
        )
      )
    )
  )

  (symbol (lib_id "Jumper:SolderJumper_3_Open") (at 167.64 78.74 0) (unit 1)
    (in_bom yes) (on_board yes) (dnp no) (fields_autoplaced)
    (uuid 9850d23a-fd4f-4d8b-9c77-bb6694ee8891)
    (property "Reference" "JP1" (at 167.64 72.39 0)
      (effects (font (size 1.27 1.27)))
    )
    (property "Value" "display" (at 167.64 74.93 0)
      (effects (font (size 1.27 1.27)))
    )
    (property "Footprint" "m65:jumper2ways" (at 167.64 78.74 0)
      (effects (font (size 1.27 1.27)) hide)
    )
    (property "Datasheet" "~" (at 167.64 78.74 0)
      (effects (font (size 1.27 1.27)) hide)
    )
    (pin "1" (uuid f2502679-236f-4d1b-b168-620bd7f303ce))
    (pin "2" (uuid 3c52965d-d2e1-4e5a-8b1b-4ed2f61081ba))
    (pin "3" (uuid 019df011-3298-4960-900d-e0e6cb5b0dbf))
    (instances
      (project "sharp-memory-displays"
        (path "/446bdc7b-ddaa-4079-95fc-22f1dca32525"
          (reference "JP1") (unit 1)
        )
      )
    )
  )

  (symbol (lib_id "Device:C_Small") (at 177.8 92.71 180) (unit 1)
    (in_bom yes) (on_board yes) (dnp no)
    (uuid a6833483-15f0-4a9d-ae8c-9be9f2305e03)
    (property "Reference" "C2" (at 175.4632 93.8784 0)
      (effects (font (size 1.27 1.27)) (justify left))
    )
    (property "Value" "1uF" (at 175.4632 91.567 0)
      (effects (font (size 1.27 1.27)) (justify left))
    )
    (property "Footprint" "m65:C-1206_3216Metric_Pad1.33x1.80mm_HandSolder-long" (at 177.8 92.71 0)
      (effects (font (size 1.27 1.27)) hide)
    )
    (property "Datasheet" "~" (at 177.8 92.71 0)
      (effects (font (size 1.27 1.27)) hide)
    )
    (property "LCSC" "C1848" (at 177.8 92.71 0)
      (effects (font (size 1.27 1.27)) hide)
    )
    (property "LCSC Part #" "C1848" (at 177.8 92.71 0)
      (effects (font (size 1.27 1.27)) hide)
    )
    (pin "1" (uuid e0eb9e13-19fd-4c54-a272-90584903bd9c))
    (pin "2" (uuid fcd45172-8d86-4948-9bcb-8137c18ff9b8))
    (instances
      (project "sharp-memory-displays"
        (path "/446bdc7b-ddaa-4079-95fc-22f1dca32525"
          (reference "C2") (unit 1)
        )
      )
      (project "sharp_memory_display"
        (path "/b4a413d2-2443-4387-b308-e1ddffeeba34"
          (reference "C2") (unit 1)
        )
      )
    )
  )

  (symbol (lib_id "Mechanical:MountingHole") (at 59.69 113.03 0) (unit 1)
    (in_bom yes) (on_board yes) (dnp no)
    (uuid b02c2edc-0d3d-4d1b-a6c0-a4a8b5c807f1)
    (property "Reference" "H1" (at 62.23 111.8616 0)
      (effects (font (size 1.27 1.27)) (justify left))
    )
    (property "Value" "MountingHole" (at 62.23 114.173 0)
      (effects (font (size 1.27 1.27)) (justify left))
    )
    (property "Footprint" "MountingHole:MountingHole_3mm" (at 59.69 113.03 0)
      (effects (font (size 1.27 1.27)) hide)
    )
    (property "Datasheet" "~" (at 59.69 113.03 0)
      (effects (font (size 1.27 1.27)) hide)
    )
    (instances
      (project "sharp-memory-displays"
        (path "/446bdc7b-ddaa-4079-95fc-22f1dca32525"
          (reference "H1") (unit 1)
        )
      )
      (project "sharp_memory_display"
        (path "/b4a413d2-2443-4387-b308-e1ddffeeba34"
          (reference "H2") (unit 1)
        )
      )
    )
  )

  (symbol (lib_id "Device:C_Small") (at 187.96 90.17 180) (unit 1)
    (in_bom yes) (on_board yes) (dnp no)
    (uuid e8786089-5b88-4f30-96e5-efd19eefe218)
    (property "Reference" "C3" (at 185.6232 91.3384 0)
      (effects (font (size 1.27 1.27)) (justify left))
    )
    (property "Value" "1uF " (at 185.6232 89.027 0)
      (effects (font (size 1.27 1.27)) (justify left))
    )
    (property "Footprint" "m65:C-1206_3216Metric_Pad1.33x1.80mm_HandSolder-long" (at 187.96 90.17 0)
      (effects (font (size 1.27 1.27)) hide)
    )
    (property "Datasheet" "~" (at 187.96 90.17 0)
      (effects (font (size 1.27 1.27)) hide)
    )
    (property "LCSC" "C1848" (at 187.96 90.17 0)
      (effects (font (size 1.27 1.27)) hide)
    )
    (property "LCSC Part #" "C541550" (at 187.96 90.17 0)
      (effects (font (size 1.27 1.27)) hide)
    )
    (pin "1" (uuid 9f73baa1-166d-4e3f-8cd8-9fe892d44784))
    (pin "2" (uuid 630c1cd0-95d0-4c69-8f22-a8d529dcee87))
    (instances
      (project "sharp-memory-displays"
        (path "/446bdc7b-ddaa-4079-95fc-22f1dca32525"
          (reference "C3") (unit 1)
        )
      )
      (project "sharp_memory_display"
        (path "/b4a413d2-2443-4387-b308-e1ddffeeba34"
          (reference "C3") (unit 1)
        )
      )
    )
  )

  (symbol (lib_id "sharp_memory_display-rescue:power_PWR_FLAG-nrfmicro-cache") (at 140.97 121.92 0) (unit 1)
    (in_bom yes) (on_board yes) (dnp no)
    (uuid f0209bb9-99f5-4adf-9a73-3af79e455628)
    (property "Reference" "#FLG01" (at 140.97 120.015 0)
      (effects (font (size 1.27 1.27)) hide)
    )
    (property "Value" "power_PWR_FLAG" (at 140.97 117.5258 0)
      (effects (font (size 1.27 1.27)))
    )
    (property "Footprint" "" (at 140.97 121.92 0)
      (effects (font (size 1.27 1.27)) hide)
    )
    (property "Datasheet" "" (at 140.97 121.92 0)
      (effects (font (size 1.27 1.27)) hide)
    )
    (pin "1" (uuid c74aa517-2702-4d82-bcdf-5200aa2c8d4b))
    (instances
      (project "sharp-memory-displays"
        (path "/446bdc7b-ddaa-4079-95fc-22f1dca32525"
          (reference "#FLG01") (unit 1)
        )
      )
      (project "sharp_memory_display"
        (path "/b4a413d2-2443-4387-b308-e1ddffeeba34"
          (reference "#FLG0101") (unit 1)
        )
      )
    )
  )

  (sheet_instances
    (path "/" (page "1"))
  )
)
