%TF.GenerationSoftware,KiCad,Pcbnew,7.0.7*%
%TF.CreationDate,2023-10-18T20:00:20+01:00*%
%TF.ProjectId,sharp-memory-displays-rounded,73686172-702d-46d6-956d-6f72792d6469,rev?*%
%TF.SameCoordinates,Original*%
%TF.FileFunction,Copper,L2,Bot*%
%TF.FilePolarity,Positive*%
%FSLAX46Y46*%
G04 Gerber Fmt 4.6, Leading zero omitted, Abs format (unit mm)*
G04 Created by KiCad (PCBNEW 7.0.7) date 2023-10-18 20:00:20*
%MOMM*%
%LPD*%
G01*
G04 APERTURE LIST*
G04 Aperture macros list*
%AMRoundRect*
0 Rectangle with rounded corners*
0 $1 Rounding radius*
0 $2 $3 $4 $5 $6 $7 $8 $9 X,Y pos of 4 corners*
0 Add a 4 corners polygon primitive as box body*
4,1,4,$2,$3,$4,$5,$6,$7,$8,$9,$2,$3,0*
0 Add four circle primitives for the rounded corners*
1,1,$1+$1,$2,$3*
1,1,$1+$1,$4,$5*
1,1,$1+$1,$6,$7*
1,1,$1+$1,$8,$9*
0 Add four rect primitives between the rounded corners*
20,1,$1+$1,$2,$3,$4,$5,0*
20,1,$1+$1,$4,$5,$6,$7,0*
20,1,$1+$1,$6,$7,$8,$9,0*
20,1,$1+$1,$8,$9,$2,$3,0*%
%AMFreePoly0*
4,1,6,1.000000,0.000000,0.500000,-0.750000,-0.500000,-0.750000,-0.500000,0.750000,0.500000,0.750000,1.000000,0.000000,1.000000,0.000000,$1*%
%AMFreePoly1*
4,1,7,0.700000,0.000000,1.200000,-0.750000,-1.200000,-0.750000,-0.700000,0.000000,-1.200000,0.750000,1.200000,0.750000,0.700000,0.000000,0.700000,0.000000,$1*%
G04 Aperture macros list end*
%TA.AperFunction,ComponentPad*%
%ADD10C,1.397000*%
%TD*%
%TA.AperFunction,ComponentPad*%
%ADD11RoundRect,0.349250X0.349250X0.349250X-0.349250X0.349250X-0.349250X-0.349250X0.349250X-0.349250X0*%
%TD*%
%TA.AperFunction,SMDPad,CuDef*%
%ADD12RoundRect,0.339622X-0.710378X-0.560378X0.710378X-0.560378X0.710378X0.560378X-0.710378X0.560378X0*%
%TD*%
%TA.AperFunction,ComponentPad*%
%ADD13RoundRect,0.125000X-0.125000X-0.125000X0.125000X-0.125000X0.125000X0.125000X-0.125000X0.125000X0*%
%TD*%
%TA.AperFunction,ComponentPad*%
%ADD14C,0.500000*%
%TD*%
%TA.AperFunction,SMDPad,CuDef*%
%ADD15R,1.300000X0.300000*%
%TD*%
%TA.AperFunction,SMDPad,CuDef*%
%ADD16R,2.200000X1.800000*%
%TD*%
%TA.AperFunction,SMDPad,CuDef*%
%ADD17FreePoly0,0.000000*%
%TD*%
%TA.AperFunction,SMDPad,CuDef*%
%ADD18FreePoly1,0.000000*%
%TD*%
%TA.AperFunction,SMDPad,CuDef*%
%ADD19FreePoly0,180.000000*%
%TD*%
%TA.AperFunction,Conductor*%
%ADD20C,0.250000*%
%TD*%
%TA.AperFunction,Conductor*%
%ADD21C,0.200000*%
%TD*%
G04 APERTURE END LIST*
D10*
%TO.P,J2,1,Pin_1*%
%TO.N,Cdisp*%
X93860000Y-50250000D03*
%TO.P,J2,2,Pin_2*%
%TO.N,unconnected-(J2-Pin_2-Pad2)*%
X96400000Y-50250000D03*
%TO.P,J2,3,Pin_3*%
%TO.N,unconnected-(J2-Pin_3-Pad3)*%
X93860000Y-47710000D03*
%TO.P,J2,4,Pin_4*%
%TO.N,CS*%
X96400000Y-47710000D03*
%TO.P,J2,5,Pin_5*%
%TO.N,SCLK*%
X93860000Y-45170000D03*
%TO.P,J2,6,Pin_6*%
%TO.N,MOSI*%
X96400000Y-45170000D03*
D11*
%TO.P,J2,7,Pin_7*%
%TO.N,EXTCOMIN*%
X93860000Y-42630000D03*
D10*
%TO.P,J2,8,Pin_8*%
%TO.N,3V3*%
X96400000Y-42630000D03*
%TD*%
D12*
%TO.P,C1,1*%
%TO.N,EXTCOMIN*%
X112990000Y-46935000D03*
D13*
X114040000Y-46910000D03*
D14*
%TO.P,C1,2*%
%TO.N,DISP*%
X115840000Y-46910000D03*
D12*
X116890000Y-46885000D03*
%TD*%
D15*
%TO.P,J1,1,Pin_1*%
%TO.N,SCLK*%
X119490000Y-44185000D03*
%TO.P,J1,2,Pin_2*%
%TO.N,MOSI*%
X119490000Y-44685000D03*
%TO.P,J1,3,Pin_3*%
%TO.N,CS*%
X119490000Y-45185000D03*
%TO.P,J1,4,Pin_4*%
%TO.N,EXTCOMIN*%
X119490000Y-45685000D03*
%TO.P,J1,5,Pin_5*%
%TO.N,DISP*%
X119490000Y-46185000D03*
%TO.P,J1,6,Pin_6*%
%TO.N,3V3*%
X119490000Y-46685000D03*
%TO.P,J1,7,Pin_7*%
X119490000Y-47185000D03*
%TO.P,J1,8,Pin_8*%
%TO.N,EXTCOMIN*%
X119490000Y-47685000D03*
%TO.P,J1,9,Pin_9*%
X119490000Y-48185000D03*
%TO.P,J1,10,Pin_10*%
X119490000Y-48685000D03*
D16*
%TO.P,J1,MP*%
%TO.N,N/C*%
X122740000Y-42285000D03*
X122740000Y-50585000D03*
%TD*%
D12*
%TO.P,C2,1*%
%TO.N,EXTCOMIN*%
X112990000Y-44595000D03*
D13*
X114040000Y-44570000D03*
D14*
%TO.P,C2,2*%
%TO.N,3V3*%
X115840000Y-44570000D03*
D12*
X116890000Y-44545000D03*
%TD*%
%TO.P,C3,1*%
%TO.N,EXTCOMIN*%
X113010000Y-49295000D03*
D13*
X114060000Y-49270000D03*
D14*
%TO.P,C3,2*%
%TO.N,3V3*%
X115860000Y-49270000D03*
D12*
X116910000Y-49245000D03*
%TD*%
D17*
%TO.P,JP1,1,A*%
%TO.N,Cdisp*%
X104580000Y-46000000D03*
D18*
%TO.P,JP1,2,C*%
%TO.N,DISP*%
X106580000Y-46000000D03*
D19*
%TO.P,JP1,3,B*%
%TO.N,3V3*%
X108580000Y-46000000D03*
%TD*%
D20*
%TO.N,3V3*%
X119490000Y-46935000D02*
X119490000Y-46685000D01*
X115576394Y-41460000D02*
X109484766Y-41460000D01*
X108580000Y-43070000D02*
X108360000Y-42850000D01*
X118984454Y-46935000D02*
X119490000Y-46935000D01*
X118113829Y-48980000D02*
X117790000Y-48980000D01*
X108580000Y-43070000D02*
X108580000Y-42364766D01*
X118515000Y-47404454D02*
X118515000Y-48578829D01*
X108580000Y-43070000D02*
X108580000Y-45605000D01*
X116502500Y-42386105D02*
X116502500Y-44570000D01*
X107828873Y-42630000D02*
X96400000Y-42630000D01*
X108360008Y-42849992D02*
G75*
G03*
X107828873Y-42630000I-531108J-531108D01*
G01*
X109484766Y-41459987D02*
G75*
G03*
X108845001Y-41725001I34J-904813D01*
G01*
X108845010Y-41725010D02*
G75*
G03*
X108580000Y-42364766I639790J-639790D01*
G01*
X118113829Y-48980012D02*
G75*
G03*
X118397500Y-48862500I-29J401212D01*
G01*
X116502497Y-42386105D02*
G75*
G03*
X116231249Y-41731251I-926097J5D01*
G01*
X118397491Y-48862491D02*
G75*
G03*
X118515000Y-48578829I-283691J283691D01*
G01*
X116231252Y-41731248D02*
G75*
G03*
X115576394Y-41460000I-654852J-654852D01*
G01*
X119490000Y-46935000D02*
G75*
G03*
X119740000Y-47185000I250000J0D01*
G01*
X118652534Y-47072534D02*
G75*
G03*
X118515000Y-47404454I331866J-331966D01*
G01*
X118984454Y-46934952D02*
G75*
G03*
X118652500Y-47072500I46J-469448D01*
G01*
%TO.N,EXTCOMIN*%
X119490000Y-48480000D02*
X119490000Y-48685000D01*
X119490000Y-48480000D02*
X119490000Y-48185000D01*
X113040000Y-44866148D02*
X113040000Y-48713851D01*
X113010000Y-50406152D02*
X113010000Y-49295000D01*
X119490000Y-47685000D02*
X119490000Y-48185000D01*
X119490000Y-48480000D02*
X119490000Y-50218370D01*
X119490000Y-47685000D02*
X120305649Y-47685000D01*
X118858370Y-50850000D02*
X113453847Y-50850000D01*
X120467824Y-45685000D02*
X119490000Y-45685000D01*
X120630000Y-45847175D02*
X120630000Y-47360649D01*
X113010020Y-50406152D02*
G75*
G03*
X113140000Y-50720000I443780J-48D01*
G01*
X120630010Y-45847175D02*
G75*
G03*
X120582500Y-45732500I-162210J-25D01*
G01*
X119305009Y-50665009D02*
G75*
G03*
X119490000Y-50218370I-446609J446609D01*
G01*
X120582493Y-45732507D02*
G75*
G03*
X120467824Y-45685000I-114693J-114693D01*
G01*
X113139986Y-50720014D02*
G75*
G03*
X113453847Y-50850000I313814J313814D01*
G01*
X120534985Y-47589985D02*
G75*
G03*
X120630000Y-47360649I-229385J229385D01*
G01*
X120305649Y-47685020D02*
G75*
G03*
X120535000Y-47590000I-49J324420D01*
G01*
X118858370Y-50849987D02*
G75*
G03*
X119304999Y-50664999I30J631587D01*
G01*
D21*
%TO.N,MOSI*%
X117866654Y-40950000D02*
X95472634Y-40950000D01*
X95660416Y-45170000D02*
X96400000Y-45170000D01*
X95080000Y-41342634D02*
X95080000Y-44589583D01*
X118430000Y-41513345D02*
X118430000Y-44437469D01*
X118677530Y-44685000D02*
X119490000Y-44685000D01*
X95249995Y-45000005D02*
G75*
G03*
X95660416Y-45170000I410405J410405D01*
G01*
X95194990Y-41064990D02*
G75*
G03*
X95080000Y-41342634I277610J-277610D01*
G01*
X118265013Y-41114987D02*
G75*
G03*
X117866654Y-40950000I-398313J-398313D01*
G01*
X95472634Y-40950015D02*
G75*
G03*
X95195000Y-41065000I-34J-392585D01*
G01*
X118429951Y-41513345D02*
G75*
G03*
X118264999Y-41115001I-563351J45D01*
G01*
X118430013Y-44437469D02*
G75*
G03*
X118502500Y-44612500I247487J-31D01*
G01*
X118502491Y-44612509D02*
G75*
G03*
X118677530Y-44685000I175009J175009D01*
G01*
X95080007Y-44589583D02*
G75*
G03*
X95250000Y-45000000I580393J-17D01*
G01*
%TO.N,SCLK*%
X93159913Y-45270000D02*
X93560000Y-45270000D01*
X119490000Y-42674142D02*
X119490000Y-44185000D01*
X92460000Y-44570086D02*
X92460000Y-41438908D01*
X118536949Y-40500000D02*
X93398908Y-40500000D01*
X119510000Y-42625857D02*
X119510000Y-41473050D01*
X92734997Y-40774997D02*
G75*
G03*
X92460000Y-41438908I663903J-663903D01*
G01*
X119224986Y-40785014D02*
G75*
G03*
X118536949Y-40500000I-688086J-688086D01*
G01*
X119499988Y-42649988D02*
G75*
G03*
X119490000Y-42674142I24112J-24112D01*
G01*
X119500012Y-42650012D02*
G75*
G03*
X119510000Y-42625857I-24112J24112D01*
G01*
X92460006Y-44570086D02*
G75*
G03*
X92665000Y-45065000I699894J-14D01*
G01*
X93398908Y-40500004D02*
G75*
G03*
X92735000Y-40775000I-8J-938896D01*
G01*
X92664996Y-45065004D02*
G75*
G03*
X93159913Y-45270000I494904J494904D01*
G01*
X119510020Y-41473050D02*
G75*
G03*
X119225000Y-40785000I-973120J-50D01*
G01*
%TO.N,CS*%
X98574055Y-51280000D02*
X120445944Y-51280000D01*
X97840000Y-48324558D02*
X97840000Y-50545944D01*
X120505692Y-45185000D02*
X119490000Y-45185000D01*
X121180000Y-45859307D02*
X121180000Y-50545944D01*
X97225441Y-47710000D02*
X96400000Y-47710000D01*
X120445944Y-51280018D02*
G75*
G03*
X120965000Y-51065000I-44J734118D01*
G01*
X120982502Y-45382498D02*
G75*
G03*
X120505692Y-45185000I-476802J-476802D01*
G01*
X97659988Y-47890012D02*
G75*
G03*
X97225441Y-47710000I-434588J-434588D01*
G01*
X98055013Y-51064987D02*
G75*
G03*
X98574055Y-51280000I519087J519087D01*
G01*
X120964987Y-51064987D02*
G75*
G03*
X121180000Y-50545944I-519087J519087D01*
G01*
X97840017Y-48324558D02*
G75*
G03*
X97660000Y-47890000I-614617J-42D01*
G01*
X121179997Y-45859307D02*
G75*
G03*
X120982500Y-45382500I-674297J7D01*
G01*
X97839953Y-50545944D02*
G75*
G03*
X98055000Y-51065000I734047J44D01*
G01*
%TO.N,DISP*%
X106580000Y-46953517D02*
X106580000Y-46000000D01*
X110095944Y-47790000D02*
X107416482Y-47790000D01*
X117227500Y-46185000D02*
X119490000Y-46185000D01*
X115010000Y-46397867D02*
X115010000Y-43221837D01*
X114088162Y-42300000D02*
X111905477Y-42300000D01*
X110830000Y-43375477D02*
X110830000Y-47055944D01*
X115522132Y-46910000D02*
X116502500Y-46910000D01*
X111145007Y-42615007D02*
G75*
G03*
X110830000Y-43375477I760493J-760493D01*
G01*
X115010014Y-46397867D02*
G75*
G03*
X115160001Y-46759999I512086J-33D01*
G01*
X114740011Y-42569989D02*
G75*
G03*
X114088162Y-42300000I-651811J-651811D01*
G01*
X110614987Y-47574987D02*
G75*
G03*
X110830000Y-47055944I-519087J519087D01*
G01*
X115009984Y-43221837D02*
G75*
G03*
X114740000Y-42570000I-921784J37D01*
G01*
X115159991Y-46760009D02*
G75*
G03*
X115522132Y-46910000I362109J362109D01*
G01*
X106825005Y-47544995D02*
G75*
G03*
X107416482Y-47790000I591495J591495D01*
G01*
X111905477Y-42299991D02*
G75*
G03*
X111145000Y-42615000I23J-1075509D01*
G01*
X106579993Y-46953517D02*
G75*
G03*
X106825000Y-47545000I836507J17D01*
G01*
X110095944Y-47790018D02*
G75*
G03*
X110615000Y-47575000I-44J734118D01*
G01*
%TO.N,Cdisp*%
X92490000Y-46979307D02*
X92490000Y-49729583D01*
X93070416Y-50310000D02*
X93600000Y-50310000D01*
X93164307Y-46305000D02*
X104975000Y-46305000D01*
X93164307Y-46305003D02*
G75*
G03*
X92687500Y-46502500I-7J-674297D01*
G01*
X92659995Y-50140005D02*
G75*
G03*
X93070416Y-50310000I410405J410405D01*
G01*
X92687498Y-46502498D02*
G75*
G03*
X92490000Y-46979307I476802J-476802D01*
G01*
X92490007Y-49729583D02*
G75*
G03*
X92660000Y-50140000I580393J-17D01*
G01*
%TD*%
M02*
