%TF.GenerationSoftware,KiCad,Pcbnew,7.0.7*%
%TF.CreationDate,2023-10-18T20:00:20+01:00*%
%TF.ProjectId,sharp-memory-displays-rounded,73686172-702d-46d6-956d-6f72792d6469,rev?*%
%TF.SameCoordinates,Original*%
%TF.FileFunction,Legend,Top*%
%TF.FilePolarity,Positive*%
%FSLAX46Y46*%
G04 Gerber Fmt 4.6, Leading zero omitted, Abs format (unit mm)*
G04 Created by KiCad (PCBNEW 7.0.7) date 2023-10-18 20:00:20*
%MOMM*%
%LPD*%
G01*
G04 APERTURE LIST*
G04 Aperture macros list*
%AMRoundRect*
0 Rectangle with rounded corners*
0 $1 Rounding radius*
0 $2 $3 $4 $5 $6 $7 $8 $9 X,Y pos of 4 corners*
0 Add a 4 corners polygon primitive as box body*
4,1,4,$2,$3,$4,$5,$6,$7,$8,$9,$2,$3,0*
0 Add four circle primitives for the rounded corners*
1,1,$1+$1,$2,$3*
1,1,$1+$1,$4,$5*
1,1,$1+$1,$6,$7*
1,1,$1+$1,$8,$9*
0 Add four rect primitives between the rounded corners*
20,1,$1+$1,$2,$3,$4,$5,0*
20,1,$1+$1,$4,$5,$6,$7,0*
20,1,$1+$1,$6,$7,$8,$9,0*
20,1,$1+$1,$8,$9,$2,$3,0*%
G04 Aperture macros list end*
%ADD10C,0.100000*%
%ADD11C,0.125000*%
%ADD12C,0.150000*%
%ADD13C,3.000000*%
%ADD14C,1.397000*%
%ADD15RoundRect,0.349250X0.349250X0.349250X-0.349250X0.349250X-0.349250X-0.349250X0.349250X-0.349250X0*%
%ADD16RoundRect,0.125000X-0.125000X-0.125000X0.125000X-0.125000X0.125000X0.125000X-0.125000X0.125000X0*%
%ADD17C,0.500000*%
G04 APERTURE END LIST*
D10*
X127450000Y-39775000D02*
X98350000Y-39775000D01*
X98350000Y-33175000D02*
X128650000Y-33175000D01*
X128650000Y-59775000D01*
X98350000Y-59775000D01*
X98350000Y-33175000D01*
X98350000Y-34175000D02*
X128350000Y-34175000D01*
X128350000Y-58875000D01*
X98350000Y-58875000D01*
X98350000Y-34175000D01*
X127450000Y-53175000D02*
X127450000Y-39775000D01*
X98350000Y-53175000D02*
X127450000Y-53175000D01*
X98350000Y-39775000D02*
X98350000Y-53175000D01*
D11*
X104099378Y-52947309D02*
X103861283Y-52947309D01*
X103861283Y-52947309D02*
X103861283Y-52447309D01*
X104242236Y-52923500D02*
X104313664Y-52947309D01*
X104313664Y-52947309D02*
X104432712Y-52947309D01*
X104432712Y-52947309D02*
X104480331Y-52923500D01*
X104480331Y-52923500D02*
X104504140Y-52899690D01*
X104504140Y-52899690D02*
X104527950Y-52852071D01*
X104527950Y-52852071D02*
X104527950Y-52804452D01*
X104527950Y-52804452D02*
X104504140Y-52756833D01*
X104504140Y-52756833D02*
X104480331Y-52733023D01*
X104480331Y-52733023D02*
X104432712Y-52709214D01*
X104432712Y-52709214D02*
X104337474Y-52685404D01*
X104337474Y-52685404D02*
X104289855Y-52661595D01*
X104289855Y-52661595D02*
X104266045Y-52637785D01*
X104266045Y-52637785D02*
X104242236Y-52590166D01*
X104242236Y-52590166D02*
X104242236Y-52542547D01*
X104242236Y-52542547D02*
X104266045Y-52494928D01*
X104266045Y-52494928D02*
X104289855Y-52471119D01*
X104289855Y-52471119D02*
X104337474Y-52447309D01*
X104337474Y-52447309D02*
X104456521Y-52447309D01*
X104456521Y-52447309D02*
X104527950Y-52471119D01*
X104837473Y-52447309D02*
X104885092Y-52447309D01*
X104885092Y-52447309D02*
X104932711Y-52471119D01*
X104932711Y-52471119D02*
X104956521Y-52494928D01*
X104956521Y-52494928D02*
X104980330Y-52542547D01*
X104980330Y-52542547D02*
X105004140Y-52637785D01*
X105004140Y-52637785D02*
X105004140Y-52756833D01*
X105004140Y-52756833D02*
X104980330Y-52852071D01*
X104980330Y-52852071D02*
X104956521Y-52899690D01*
X104956521Y-52899690D02*
X104932711Y-52923500D01*
X104932711Y-52923500D02*
X104885092Y-52947309D01*
X104885092Y-52947309D02*
X104837473Y-52947309D01*
X104837473Y-52947309D02*
X104789854Y-52923500D01*
X104789854Y-52923500D02*
X104766045Y-52899690D01*
X104766045Y-52899690D02*
X104742235Y-52852071D01*
X104742235Y-52852071D02*
X104718426Y-52756833D01*
X104718426Y-52756833D02*
X104718426Y-52637785D01*
X104718426Y-52637785D02*
X104742235Y-52542547D01*
X104742235Y-52542547D02*
X104766045Y-52494928D01*
X104766045Y-52494928D02*
X104789854Y-52471119D01*
X104789854Y-52471119D02*
X104837473Y-52447309D01*
X105480330Y-52947309D02*
X105194616Y-52947309D01*
X105337473Y-52947309D02*
X105337473Y-52447309D01*
X105337473Y-52447309D02*
X105289854Y-52518738D01*
X105289854Y-52518738D02*
X105242235Y-52566357D01*
X105242235Y-52566357D02*
X105194616Y-52590166D01*
X105956520Y-52947309D02*
X105670806Y-52947309D01*
X105813663Y-52947309D02*
X105813663Y-52447309D01*
X105813663Y-52447309D02*
X105766044Y-52518738D01*
X105766044Y-52518738D02*
X105718425Y-52566357D01*
X105718425Y-52566357D02*
X105670806Y-52590166D01*
X106337472Y-52685404D02*
X106408900Y-52709214D01*
X106408900Y-52709214D02*
X106432710Y-52733023D01*
X106432710Y-52733023D02*
X106456519Y-52780642D01*
X106456519Y-52780642D02*
X106456519Y-52852071D01*
X106456519Y-52852071D02*
X106432710Y-52899690D01*
X106432710Y-52899690D02*
X106408900Y-52923500D01*
X106408900Y-52923500D02*
X106361281Y-52947309D01*
X106361281Y-52947309D02*
X106170805Y-52947309D01*
X106170805Y-52947309D02*
X106170805Y-52447309D01*
X106170805Y-52447309D02*
X106337472Y-52447309D01*
X106337472Y-52447309D02*
X106385091Y-52471119D01*
X106385091Y-52471119D02*
X106408900Y-52494928D01*
X106408900Y-52494928D02*
X106432710Y-52542547D01*
X106432710Y-52542547D02*
X106432710Y-52590166D01*
X106432710Y-52590166D02*
X106408900Y-52637785D01*
X106408900Y-52637785D02*
X106385091Y-52661595D01*
X106385091Y-52661595D02*
X106337472Y-52685404D01*
X106337472Y-52685404D02*
X106170805Y-52685404D01*
X106623186Y-52447309D02*
X106956519Y-52447309D01*
X106956519Y-52447309D02*
X106742234Y-52947309D01*
X107146995Y-52947309D02*
X107146995Y-52447309D01*
X107146995Y-52447309D02*
X107266043Y-52447309D01*
X107266043Y-52447309D02*
X107337471Y-52471119D01*
X107337471Y-52471119D02*
X107385090Y-52518738D01*
X107385090Y-52518738D02*
X107408900Y-52566357D01*
X107408900Y-52566357D02*
X107432709Y-52661595D01*
X107432709Y-52661595D02*
X107432709Y-52733023D01*
X107432709Y-52733023D02*
X107408900Y-52828261D01*
X107408900Y-52828261D02*
X107385090Y-52875880D01*
X107385090Y-52875880D02*
X107337471Y-52923500D01*
X107337471Y-52923500D02*
X107266043Y-52947309D01*
X107266043Y-52947309D02*
X107146995Y-52947309D01*
X107646995Y-52947309D02*
X107646995Y-52447309D01*
X107646995Y-52685404D02*
X107932709Y-52685404D01*
X107932709Y-52947309D02*
X107932709Y-52447309D01*
X108266043Y-52447309D02*
X108313662Y-52447309D01*
X108313662Y-52447309D02*
X108361281Y-52471119D01*
X108361281Y-52471119D02*
X108385091Y-52494928D01*
X108385091Y-52494928D02*
X108408900Y-52542547D01*
X108408900Y-52542547D02*
X108432710Y-52637785D01*
X108432710Y-52637785D02*
X108432710Y-52756833D01*
X108432710Y-52756833D02*
X108408900Y-52852071D01*
X108408900Y-52852071D02*
X108385091Y-52899690D01*
X108385091Y-52899690D02*
X108361281Y-52923500D01*
X108361281Y-52923500D02*
X108313662Y-52947309D01*
X108313662Y-52947309D02*
X108266043Y-52947309D01*
X108266043Y-52947309D02*
X108218424Y-52923500D01*
X108218424Y-52923500D02*
X108194615Y-52899690D01*
X108194615Y-52899690D02*
X108170805Y-52852071D01*
X108170805Y-52852071D02*
X108146996Y-52756833D01*
X108146996Y-52756833D02*
X108146996Y-52637785D01*
X108146996Y-52637785D02*
X108170805Y-52542547D01*
X108170805Y-52542547D02*
X108194615Y-52494928D01*
X108194615Y-52494928D02*
X108218424Y-52471119D01*
X108218424Y-52471119D02*
X108266043Y-52447309D01*
X108599376Y-52447309D02*
X108908900Y-52447309D01*
X108908900Y-52447309D02*
X108742233Y-52637785D01*
X108742233Y-52637785D02*
X108813662Y-52637785D01*
X108813662Y-52637785D02*
X108861281Y-52661595D01*
X108861281Y-52661595D02*
X108885090Y-52685404D01*
X108885090Y-52685404D02*
X108908900Y-52733023D01*
X108908900Y-52733023D02*
X108908900Y-52852071D01*
X108908900Y-52852071D02*
X108885090Y-52899690D01*
X108885090Y-52899690D02*
X108861281Y-52923500D01*
X108861281Y-52923500D02*
X108813662Y-52947309D01*
X108813662Y-52947309D02*
X108670805Y-52947309D01*
X108670805Y-52947309D02*
X108623186Y-52923500D01*
X108623186Y-52923500D02*
X108599376Y-52899690D01*
X99722020Y-35087698D02*
X99483925Y-35087698D01*
X99483925Y-35087698D02*
X99483925Y-34587698D01*
X99864878Y-35063889D02*
X99936306Y-35087698D01*
X99936306Y-35087698D02*
X100055354Y-35087698D01*
X100055354Y-35087698D02*
X100102973Y-35063889D01*
X100102973Y-35063889D02*
X100126782Y-35040079D01*
X100126782Y-35040079D02*
X100150592Y-34992460D01*
X100150592Y-34992460D02*
X100150592Y-34944841D01*
X100150592Y-34944841D02*
X100126782Y-34897222D01*
X100126782Y-34897222D02*
X100102973Y-34873412D01*
X100102973Y-34873412D02*
X100055354Y-34849603D01*
X100055354Y-34849603D02*
X99960116Y-34825793D01*
X99960116Y-34825793D02*
X99912497Y-34801984D01*
X99912497Y-34801984D02*
X99888687Y-34778174D01*
X99888687Y-34778174D02*
X99864878Y-34730555D01*
X99864878Y-34730555D02*
X99864878Y-34682936D01*
X99864878Y-34682936D02*
X99888687Y-34635317D01*
X99888687Y-34635317D02*
X99912497Y-34611508D01*
X99912497Y-34611508D02*
X99960116Y-34587698D01*
X99960116Y-34587698D02*
X100079163Y-34587698D01*
X100079163Y-34587698D02*
X100150592Y-34611508D01*
X100460115Y-34587698D02*
X100507734Y-34587698D01*
X100507734Y-34587698D02*
X100555353Y-34611508D01*
X100555353Y-34611508D02*
X100579163Y-34635317D01*
X100579163Y-34635317D02*
X100602972Y-34682936D01*
X100602972Y-34682936D02*
X100626782Y-34778174D01*
X100626782Y-34778174D02*
X100626782Y-34897222D01*
X100626782Y-34897222D02*
X100602972Y-34992460D01*
X100602972Y-34992460D02*
X100579163Y-35040079D01*
X100579163Y-35040079D02*
X100555353Y-35063889D01*
X100555353Y-35063889D02*
X100507734Y-35087698D01*
X100507734Y-35087698D02*
X100460115Y-35087698D01*
X100460115Y-35087698D02*
X100412496Y-35063889D01*
X100412496Y-35063889D02*
X100388687Y-35040079D01*
X100388687Y-35040079D02*
X100364877Y-34992460D01*
X100364877Y-34992460D02*
X100341068Y-34897222D01*
X100341068Y-34897222D02*
X100341068Y-34778174D01*
X100341068Y-34778174D02*
X100364877Y-34682936D01*
X100364877Y-34682936D02*
X100388687Y-34635317D01*
X100388687Y-34635317D02*
X100412496Y-34611508D01*
X100412496Y-34611508D02*
X100460115Y-34587698D01*
X101102972Y-35087698D02*
X100817258Y-35087698D01*
X100960115Y-35087698D02*
X100960115Y-34587698D01*
X100960115Y-34587698D02*
X100912496Y-34659127D01*
X100912496Y-34659127D02*
X100864877Y-34706746D01*
X100864877Y-34706746D02*
X100817258Y-34730555D01*
X101269638Y-34587698D02*
X101579162Y-34587698D01*
X101579162Y-34587698D02*
X101412495Y-34778174D01*
X101412495Y-34778174D02*
X101483924Y-34778174D01*
X101483924Y-34778174D02*
X101531543Y-34801984D01*
X101531543Y-34801984D02*
X101555352Y-34825793D01*
X101555352Y-34825793D02*
X101579162Y-34873412D01*
X101579162Y-34873412D02*
X101579162Y-34992460D01*
X101579162Y-34992460D02*
X101555352Y-35040079D01*
X101555352Y-35040079D02*
X101531543Y-35063889D01*
X101531543Y-35063889D02*
X101483924Y-35087698D01*
X101483924Y-35087698D02*
X101341067Y-35087698D01*
X101341067Y-35087698D02*
X101293448Y-35063889D01*
X101293448Y-35063889D02*
X101269638Y-35040079D01*
X101960114Y-34825793D02*
X102031542Y-34849603D01*
X102031542Y-34849603D02*
X102055352Y-34873412D01*
X102055352Y-34873412D02*
X102079161Y-34921031D01*
X102079161Y-34921031D02*
X102079161Y-34992460D01*
X102079161Y-34992460D02*
X102055352Y-35040079D01*
X102055352Y-35040079D02*
X102031542Y-35063889D01*
X102031542Y-35063889D02*
X101983923Y-35087698D01*
X101983923Y-35087698D02*
X101793447Y-35087698D01*
X101793447Y-35087698D02*
X101793447Y-34587698D01*
X101793447Y-34587698D02*
X101960114Y-34587698D01*
X101960114Y-34587698D02*
X102007733Y-34611508D01*
X102007733Y-34611508D02*
X102031542Y-34635317D01*
X102031542Y-34635317D02*
X102055352Y-34682936D01*
X102055352Y-34682936D02*
X102055352Y-34730555D01*
X102055352Y-34730555D02*
X102031542Y-34778174D01*
X102031542Y-34778174D02*
X102007733Y-34801984D01*
X102007733Y-34801984D02*
X101960114Y-34825793D01*
X101960114Y-34825793D02*
X101793447Y-34825793D01*
X102245828Y-34587698D02*
X102579161Y-34587698D01*
X102579161Y-34587698D02*
X102364876Y-35087698D01*
X102769637Y-35087698D02*
X102769637Y-34587698D01*
X102769637Y-34587698D02*
X102888685Y-34587698D01*
X102888685Y-34587698D02*
X102960113Y-34611508D01*
X102960113Y-34611508D02*
X103007732Y-34659127D01*
X103007732Y-34659127D02*
X103031542Y-34706746D01*
X103031542Y-34706746D02*
X103055351Y-34801984D01*
X103055351Y-34801984D02*
X103055351Y-34873412D01*
X103055351Y-34873412D02*
X103031542Y-34968650D01*
X103031542Y-34968650D02*
X103007732Y-35016269D01*
X103007732Y-35016269D02*
X102960113Y-35063889D01*
X102960113Y-35063889D02*
X102888685Y-35087698D01*
X102888685Y-35087698D02*
X102769637Y-35087698D01*
X103269637Y-35087698D02*
X103269637Y-34587698D01*
X103269637Y-34825793D02*
X103555351Y-34825793D01*
X103555351Y-35087698D02*
X103555351Y-34587698D01*
X103888685Y-34587698D02*
X103936304Y-34587698D01*
X103936304Y-34587698D02*
X103983923Y-34611508D01*
X103983923Y-34611508D02*
X104007733Y-34635317D01*
X104007733Y-34635317D02*
X104031542Y-34682936D01*
X104031542Y-34682936D02*
X104055352Y-34778174D01*
X104055352Y-34778174D02*
X104055352Y-34897222D01*
X104055352Y-34897222D02*
X104031542Y-34992460D01*
X104031542Y-34992460D02*
X104007733Y-35040079D01*
X104007733Y-35040079D02*
X103983923Y-35063889D01*
X103983923Y-35063889D02*
X103936304Y-35087698D01*
X103936304Y-35087698D02*
X103888685Y-35087698D01*
X103888685Y-35087698D02*
X103841066Y-35063889D01*
X103841066Y-35063889D02*
X103817257Y-35040079D01*
X103817257Y-35040079D02*
X103793447Y-34992460D01*
X103793447Y-34992460D02*
X103769638Y-34897222D01*
X103769638Y-34897222D02*
X103769638Y-34778174D01*
X103769638Y-34778174D02*
X103793447Y-34682936D01*
X103793447Y-34682936D02*
X103817257Y-34635317D01*
X103817257Y-34635317D02*
X103841066Y-34611508D01*
X103841066Y-34611508D02*
X103888685Y-34587698D01*
X104507732Y-34587698D02*
X104269637Y-34587698D01*
X104269637Y-34587698D02*
X104245828Y-34825793D01*
X104245828Y-34825793D02*
X104269637Y-34801984D01*
X104269637Y-34801984D02*
X104317256Y-34778174D01*
X104317256Y-34778174D02*
X104436304Y-34778174D01*
X104436304Y-34778174D02*
X104483923Y-34801984D01*
X104483923Y-34801984D02*
X104507732Y-34825793D01*
X104507732Y-34825793D02*
X104531542Y-34873412D01*
X104531542Y-34873412D02*
X104531542Y-34992460D01*
X104531542Y-34992460D02*
X104507732Y-35040079D01*
X104507732Y-35040079D02*
X104483923Y-35063889D01*
X104483923Y-35063889D02*
X104436304Y-35087698D01*
X104436304Y-35087698D02*
X104317256Y-35087698D01*
X104317256Y-35087698D02*
X104269637Y-35063889D01*
X104269637Y-35063889D02*
X104245828Y-35040079D01*
X99742020Y-33927698D02*
X99503925Y-33927698D01*
X99503925Y-33927698D02*
X99503925Y-33427698D01*
X99884878Y-33903889D02*
X99956306Y-33927698D01*
X99956306Y-33927698D02*
X100075354Y-33927698D01*
X100075354Y-33927698D02*
X100122973Y-33903889D01*
X100122973Y-33903889D02*
X100146782Y-33880079D01*
X100146782Y-33880079D02*
X100170592Y-33832460D01*
X100170592Y-33832460D02*
X100170592Y-33784841D01*
X100170592Y-33784841D02*
X100146782Y-33737222D01*
X100146782Y-33737222D02*
X100122973Y-33713412D01*
X100122973Y-33713412D02*
X100075354Y-33689603D01*
X100075354Y-33689603D02*
X99980116Y-33665793D01*
X99980116Y-33665793D02*
X99932497Y-33641984D01*
X99932497Y-33641984D02*
X99908687Y-33618174D01*
X99908687Y-33618174D02*
X99884878Y-33570555D01*
X99884878Y-33570555D02*
X99884878Y-33522936D01*
X99884878Y-33522936D02*
X99908687Y-33475317D01*
X99908687Y-33475317D02*
X99932497Y-33451508D01*
X99932497Y-33451508D02*
X99980116Y-33427698D01*
X99980116Y-33427698D02*
X100099163Y-33427698D01*
X100099163Y-33427698D02*
X100170592Y-33451508D01*
X100480115Y-33427698D02*
X100527734Y-33427698D01*
X100527734Y-33427698D02*
X100575353Y-33451508D01*
X100575353Y-33451508D02*
X100599163Y-33475317D01*
X100599163Y-33475317D02*
X100622972Y-33522936D01*
X100622972Y-33522936D02*
X100646782Y-33618174D01*
X100646782Y-33618174D02*
X100646782Y-33737222D01*
X100646782Y-33737222D02*
X100622972Y-33832460D01*
X100622972Y-33832460D02*
X100599163Y-33880079D01*
X100599163Y-33880079D02*
X100575353Y-33903889D01*
X100575353Y-33903889D02*
X100527734Y-33927698D01*
X100527734Y-33927698D02*
X100480115Y-33927698D01*
X100480115Y-33927698D02*
X100432496Y-33903889D01*
X100432496Y-33903889D02*
X100408687Y-33880079D01*
X100408687Y-33880079D02*
X100384877Y-33832460D01*
X100384877Y-33832460D02*
X100361068Y-33737222D01*
X100361068Y-33737222D02*
X100361068Y-33618174D01*
X100361068Y-33618174D02*
X100384877Y-33522936D01*
X100384877Y-33522936D02*
X100408687Y-33475317D01*
X100408687Y-33475317D02*
X100432496Y-33451508D01*
X100432496Y-33451508D02*
X100480115Y-33427698D01*
X101122972Y-33927698D02*
X100837258Y-33927698D01*
X100980115Y-33927698D02*
X100980115Y-33427698D01*
X100980115Y-33427698D02*
X100932496Y-33499127D01*
X100932496Y-33499127D02*
X100884877Y-33546746D01*
X100884877Y-33546746D02*
X100837258Y-33570555D01*
X101289638Y-33427698D02*
X101599162Y-33427698D01*
X101599162Y-33427698D02*
X101432495Y-33618174D01*
X101432495Y-33618174D02*
X101503924Y-33618174D01*
X101503924Y-33618174D02*
X101551543Y-33641984D01*
X101551543Y-33641984D02*
X101575352Y-33665793D01*
X101575352Y-33665793D02*
X101599162Y-33713412D01*
X101599162Y-33713412D02*
X101599162Y-33832460D01*
X101599162Y-33832460D02*
X101575352Y-33880079D01*
X101575352Y-33880079D02*
X101551543Y-33903889D01*
X101551543Y-33903889D02*
X101503924Y-33927698D01*
X101503924Y-33927698D02*
X101361067Y-33927698D01*
X101361067Y-33927698D02*
X101313448Y-33903889D01*
X101313448Y-33903889D02*
X101289638Y-33880079D01*
X101980114Y-33665793D02*
X102051542Y-33689603D01*
X102051542Y-33689603D02*
X102075352Y-33713412D01*
X102075352Y-33713412D02*
X102099161Y-33761031D01*
X102099161Y-33761031D02*
X102099161Y-33832460D01*
X102099161Y-33832460D02*
X102075352Y-33880079D01*
X102075352Y-33880079D02*
X102051542Y-33903889D01*
X102051542Y-33903889D02*
X102003923Y-33927698D01*
X102003923Y-33927698D02*
X101813447Y-33927698D01*
X101813447Y-33927698D02*
X101813447Y-33427698D01*
X101813447Y-33427698D02*
X101980114Y-33427698D01*
X101980114Y-33427698D02*
X102027733Y-33451508D01*
X102027733Y-33451508D02*
X102051542Y-33475317D01*
X102051542Y-33475317D02*
X102075352Y-33522936D01*
X102075352Y-33522936D02*
X102075352Y-33570555D01*
X102075352Y-33570555D02*
X102051542Y-33618174D01*
X102051542Y-33618174D02*
X102027733Y-33641984D01*
X102027733Y-33641984D02*
X101980114Y-33665793D01*
X101980114Y-33665793D02*
X101813447Y-33665793D01*
X102265828Y-33427698D02*
X102599161Y-33427698D01*
X102599161Y-33427698D02*
X102384876Y-33927698D01*
X102789637Y-33927698D02*
X102789637Y-33427698D01*
X102789637Y-33427698D02*
X102908685Y-33427698D01*
X102908685Y-33427698D02*
X102980113Y-33451508D01*
X102980113Y-33451508D02*
X103027732Y-33499127D01*
X103027732Y-33499127D02*
X103051542Y-33546746D01*
X103051542Y-33546746D02*
X103075351Y-33641984D01*
X103075351Y-33641984D02*
X103075351Y-33713412D01*
X103075351Y-33713412D02*
X103051542Y-33808650D01*
X103051542Y-33808650D02*
X103027732Y-33856269D01*
X103027732Y-33856269D02*
X102980113Y-33903889D01*
X102980113Y-33903889D02*
X102908685Y-33927698D01*
X102908685Y-33927698D02*
X102789637Y-33927698D01*
X103289637Y-33927698D02*
X103289637Y-33427698D01*
X103289637Y-33665793D02*
X103575351Y-33665793D01*
X103575351Y-33927698D02*
X103575351Y-33427698D01*
X103908685Y-33427698D02*
X103956304Y-33427698D01*
X103956304Y-33427698D02*
X104003923Y-33451508D01*
X104003923Y-33451508D02*
X104027733Y-33475317D01*
X104027733Y-33475317D02*
X104051542Y-33522936D01*
X104051542Y-33522936D02*
X104075352Y-33618174D01*
X104075352Y-33618174D02*
X104075352Y-33737222D01*
X104075352Y-33737222D02*
X104051542Y-33832460D01*
X104051542Y-33832460D02*
X104027733Y-33880079D01*
X104027733Y-33880079D02*
X104003923Y-33903889D01*
X104003923Y-33903889D02*
X103956304Y-33927698D01*
X103956304Y-33927698D02*
X103908685Y-33927698D01*
X103908685Y-33927698D02*
X103861066Y-33903889D01*
X103861066Y-33903889D02*
X103837257Y-33880079D01*
X103837257Y-33880079D02*
X103813447Y-33832460D01*
X103813447Y-33832460D02*
X103789638Y-33737222D01*
X103789638Y-33737222D02*
X103789638Y-33618174D01*
X103789638Y-33618174D02*
X103813447Y-33522936D01*
X103813447Y-33522936D02*
X103837257Y-33475317D01*
X103837257Y-33475317D02*
X103861066Y-33451508D01*
X103861066Y-33451508D02*
X103908685Y-33427698D01*
X104242018Y-33427698D02*
X104551542Y-33427698D01*
X104551542Y-33427698D02*
X104384875Y-33618174D01*
X104384875Y-33618174D02*
X104456304Y-33618174D01*
X104456304Y-33618174D02*
X104503923Y-33641984D01*
X104503923Y-33641984D02*
X104527732Y-33665793D01*
X104527732Y-33665793D02*
X104551542Y-33713412D01*
X104551542Y-33713412D02*
X104551542Y-33832460D01*
X104551542Y-33832460D02*
X104527732Y-33880079D01*
X104527732Y-33880079D02*
X104503923Y-33903889D01*
X104503923Y-33903889D02*
X104456304Y-33927698D01*
X104456304Y-33927698D02*
X104313447Y-33927698D01*
X104313447Y-33927698D02*
X104265828Y-33903889D01*
X104265828Y-33903889D02*
X104242018Y-33880079D01*
D12*
X88958095Y-59304819D02*
X88958095Y-58304819D01*
X88958095Y-58781009D02*
X89529523Y-58781009D01*
X89529523Y-59304819D02*
X89529523Y-58304819D01*
X89958095Y-58400057D02*
X90005714Y-58352438D01*
X90005714Y-58352438D02*
X90100952Y-58304819D01*
X90100952Y-58304819D02*
X90339047Y-58304819D01*
X90339047Y-58304819D02*
X90434285Y-58352438D01*
X90434285Y-58352438D02*
X90481904Y-58400057D01*
X90481904Y-58400057D02*
X90529523Y-58495295D01*
X90529523Y-58495295D02*
X90529523Y-58590533D01*
X90529523Y-58590533D02*
X90481904Y-58733390D01*
X90481904Y-58733390D02*
X89910476Y-59304819D01*
X89910476Y-59304819D02*
X90529523Y-59304819D01*
D10*
X94890000Y-40401764D02*
X94890000Y-40937478D01*
X94890000Y-40937478D02*
X94854285Y-41044621D01*
X94854285Y-41044621D02*
X94782857Y-41116050D01*
X94782857Y-41116050D02*
X94675714Y-41151764D01*
X94675714Y-41151764D02*
X94604285Y-41151764D01*
X95211429Y-40473192D02*
X95247143Y-40437478D01*
X95247143Y-40437478D02*
X95318572Y-40401764D01*
X95318572Y-40401764D02*
X95497143Y-40401764D01*
X95497143Y-40401764D02*
X95568572Y-40437478D01*
X95568572Y-40437478D02*
X95604286Y-40473192D01*
X95604286Y-40473192D02*
X95640000Y-40544621D01*
X95640000Y-40544621D02*
X95640000Y-40616050D01*
X95640000Y-40616050D02*
X95604286Y-40723192D01*
X95604286Y-40723192D02*
X95175714Y-41151764D01*
X95175714Y-41151764D02*
X95640000Y-41151764D01*
X98898646Y-49201371D02*
X98898646Y-48601371D01*
X98898646Y-48829942D02*
X98955789Y-48801371D01*
X98955789Y-48801371D02*
X99070074Y-48801371D01*
X99070074Y-48801371D02*
X99127217Y-48829942D01*
X99127217Y-48829942D02*
X99155789Y-48858514D01*
X99155789Y-48858514D02*
X99184360Y-48915657D01*
X99184360Y-48915657D02*
X99184360Y-49087085D01*
X99184360Y-49087085D02*
X99155789Y-49144228D01*
X99155789Y-49144228D02*
X99127217Y-49172800D01*
X99127217Y-49172800D02*
X99070074Y-49201371D01*
X99070074Y-49201371D02*
X98955789Y-49201371D01*
X98955789Y-49201371D02*
X98898646Y-49172800D01*
X99698646Y-48801371D02*
X99698646Y-49201371D01*
X99441503Y-48801371D02*
X99441503Y-49115657D01*
X99441503Y-49115657D02*
X99470074Y-49172800D01*
X99470074Y-49172800D02*
X99527217Y-49201371D01*
X99527217Y-49201371D02*
X99612931Y-49201371D01*
X99612931Y-49201371D02*
X99670074Y-49172800D01*
X99670074Y-49172800D02*
X99698646Y-49144228D01*
X99955788Y-49172800D02*
X100012931Y-49201371D01*
X100012931Y-49201371D02*
X100127217Y-49201371D01*
X100127217Y-49201371D02*
X100184360Y-49172800D01*
X100184360Y-49172800D02*
X100212931Y-49115657D01*
X100212931Y-49115657D02*
X100212931Y-49087085D01*
X100212931Y-49087085D02*
X100184360Y-49029942D01*
X100184360Y-49029942D02*
X100127217Y-49001371D01*
X100127217Y-49001371D02*
X100041503Y-49001371D01*
X100041503Y-49001371D02*
X99984360Y-48972800D01*
X99984360Y-48972800D02*
X99955788Y-48915657D01*
X99955788Y-48915657D02*
X99955788Y-48887085D01*
X99955788Y-48887085D02*
X99984360Y-48829942D01*
X99984360Y-48829942D02*
X100041503Y-48801371D01*
X100041503Y-48801371D02*
X100127217Y-48801371D01*
X100127217Y-48801371D02*
X100184360Y-48829942D01*
X100412931Y-48801371D02*
X100555788Y-49201371D01*
X100698645Y-48801371D02*
X100555788Y-49201371D01*
X100555788Y-49201371D02*
X100498645Y-49344228D01*
X100498645Y-49344228D02*
X100470074Y-49372800D01*
X100470074Y-49372800D02*
X100412931Y-49401371D01*
X99218646Y-49981371D02*
X99218646Y-49381371D01*
X99218646Y-49609942D02*
X99275789Y-49581371D01*
X99275789Y-49581371D02*
X99390074Y-49581371D01*
X99390074Y-49581371D02*
X99447217Y-49609942D01*
X99447217Y-49609942D02*
X99475789Y-49638514D01*
X99475789Y-49638514D02*
X99504360Y-49695657D01*
X99504360Y-49695657D02*
X99504360Y-49867085D01*
X99504360Y-49867085D02*
X99475789Y-49924228D01*
X99475789Y-49924228D02*
X99447217Y-49952800D01*
X99447217Y-49952800D02*
X99390074Y-49981371D01*
X99390074Y-49981371D02*
X99275789Y-49981371D01*
X99275789Y-49981371D02*
X99218646Y-49952800D01*
X99847217Y-49981371D02*
X99790074Y-49952800D01*
X99790074Y-49952800D02*
X99761503Y-49895657D01*
X99761503Y-49895657D02*
X99761503Y-49381371D01*
X100075789Y-49981371D02*
X100075789Y-49381371D01*
X100132932Y-49752800D02*
X100304360Y-49981371D01*
X100304360Y-49581371D02*
X100075789Y-49809942D01*
X99125789Y-42443014D02*
X99125789Y-43050157D01*
X99125789Y-43050157D02*
X99090074Y-43121585D01*
X99090074Y-43121585D02*
X99054360Y-43157300D01*
X99054360Y-43157300D02*
X98982931Y-43193014D01*
X98982931Y-43193014D02*
X98875789Y-43193014D01*
X98875789Y-43193014D02*
X98804360Y-43157300D01*
X99125789Y-42907300D02*
X99054360Y-42943014D01*
X99054360Y-42943014D02*
X98911503Y-42943014D01*
X98911503Y-42943014D02*
X98840074Y-42907300D01*
X98840074Y-42907300D02*
X98804360Y-42871585D01*
X98804360Y-42871585D02*
X98768646Y-42800157D01*
X98768646Y-42800157D02*
X98768646Y-42585871D01*
X98768646Y-42585871D02*
X98804360Y-42514442D01*
X98804360Y-42514442D02*
X98840074Y-42478728D01*
X98840074Y-42478728D02*
X98911503Y-42443014D01*
X98911503Y-42443014D02*
X99054360Y-42443014D01*
X99054360Y-42443014D02*
X99125789Y-42478728D01*
X99482931Y-42443014D02*
X99482931Y-42943014D01*
X99482931Y-42514442D02*
X99518645Y-42478728D01*
X99518645Y-42478728D02*
X99590074Y-42443014D01*
X99590074Y-42443014D02*
X99697217Y-42443014D01*
X99697217Y-42443014D02*
X99768645Y-42478728D01*
X99768645Y-42478728D02*
X99804360Y-42550157D01*
X99804360Y-42550157D02*
X99804360Y-42943014D01*
X100482931Y-42943014D02*
X100482931Y-42193014D01*
X100482931Y-42907300D02*
X100411502Y-42943014D01*
X100411502Y-42943014D02*
X100268645Y-42943014D01*
X100268645Y-42943014D02*
X100197216Y-42907300D01*
X100197216Y-42907300D02*
X100161502Y-42871585D01*
X100161502Y-42871585D02*
X100125788Y-42800157D01*
X100125788Y-42800157D02*
X100125788Y-42585871D01*
X100125788Y-42585871D02*
X100161502Y-42514442D01*
X100161502Y-42514442D02*
X100197216Y-42478728D01*
X100197216Y-42478728D02*
X100268645Y-42443014D01*
X100268645Y-42443014D02*
X100411502Y-42443014D01*
X100411502Y-42443014D02*
X100482931Y-42478728D01*
X101152931Y-42243014D02*
X101617217Y-42243014D01*
X101617217Y-42243014D02*
X101367217Y-42528728D01*
X101367217Y-42528728D02*
X101474360Y-42528728D01*
X101474360Y-42528728D02*
X101545789Y-42564442D01*
X101545789Y-42564442D02*
X101581503Y-42600157D01*
X101581503Y-42600157D02*
X101617217Y-42671585D01*
X101617217Y-42671585D02*
X101617217Y-42850157D01*
X101617217Y-42850157D02*
X101581503Y-42921585D01*
X101581503Y-42921585D02*
X101545789Y-42957300D01*
X101545789Y-42957300D02*
X101474360Y-42993014D01*
X101474360Y-42993014D02*
X101260074Y-42993014D01*
X101260074Y-42993014D02*
X101188646Y-42957300D01*
X101188646Y-42957300D02*
X101152931Y-42921585D01*
X101831503Y-42243014D02*
X102081503Y-42993014D01*
X102081503Y-42993014D02*
X102331503Y-42243014D01*
X102510074Y-42243014D02*
X102974360Y-42243014D01*
X102974360Y-42243014D02*
X102724360Y-42528728D01*
X102724360Y-42528728D02*
X102831503Y-42528728D01*
X102831503Y-42528728D02*
X102902932Y-42564442D01*
X102902932Y-42564442D02*
X102938646Y-42600157D01*
X102938646Y-42600157D02*
X102974360Y-42671585D01*
X102974360Y-42671585D02*
X102974360Y-42850157D01*
X102974360Y-42850157D02*
X102938646Y-42921585D01*
X102938646Y-42921585D02*
X102902932Y-42957300D01*
X102902932Y-42957300D02*
X102831503Y-42993014D01*
X102831503Y-42993014D02*
X102617217Y-42993014D01*
X102617217Y-42993014D02*
X102545789Y-42957300D01*
X102545789Y-42957300D02*
X102510074Y-42921585D01*
X101128646Y-44611371D02*
X101128646Y-44211371D01*
X101128646Y-44268514D02*
X101157217Y-44239942D01*
X101157217Y-44239942D02*
X101214360Y-44211371D01*
X101214360Y-44211371D02*
X101300074Y-44211371D01*
X101300074Y-44211371D02*
X101357217Y-44239942D01*
X101357217Y-44239942D02*
X101385789Y-44297085D01*
X101385789Y-44297085D02*
X101385789Y-44611371D01*
X101385789Y-44297085D02*
X101414360Y-44239942D01*
X101414360Y-44239942D02*
X101471503Y-44211371D01*
X101471503Y-44211371D02*
X101557217Y-44211371D01*
X101557217Y-44211371D02*
X101614360Y-44239942D01*
X101614360Y-44239942D02*
X101642931Y-44297085D01*
X101642931Y-44297085D02*
X101642931Y-44611371D01*
X102014360Y-44611371D02*
X101957217Y-44582800D01*
X101957217Y-44582800D02*
X101928646Y-44554228D01*
X101928646Y-44554228D02*
X101900074Y-44497085D01*
X101900074Y-44497085D02*
X101900074Y-44325657D01*
X101900074Y-44325657D02*
X101928646Y-44268514D01*
X101928646Y-44268514D02*
X101957217Y-44239942D01*
X101957217Y-44239942D02*
X102014360Y-44211371D01*
X102014360Y-44211371D02*
X102100074Y-44211371D01*
X102100074Y-44211371D02*
X102157217Y-44239942D01*
X102157217Y-44239942D02*
X102185789Y-44268514D01*
X102185789Y-44268514D02*
X102214360Y-44325657D01*
X102214360Y-44325657D02*
X102214360Y-44497085D01*
X102214360Y-44497085D02*
X102185789Y-44554228D01*
X102185789Y-44554228D02*
X102157217Y-44582800D01*
X102157217Y-44582800D02*
X102100074Y-44611371D01*
X102100074Y-44611371D02*
X102014360Y-44611371D01*
X102442931Y-44582800D02*
X102500074Y-44611371D01*
X102500074Y-44611371D02*
X102614360Y-44611371D01*
X102614360Y-44611371D02*
X102671503Y-44582800D01*
X102671503Y-44582800D02*
X102700074Y-44525657D01*
X102700074Y-44525657D02*
X102700074Y-44497085D01*
X102700074Y-44497085D02*
X102671503Y-44439942D01*
X102671503Y-44439942D02*
X102614360Y-44411371D01*
X102614360Y-44411371D02*
X102528646Y-44411371D01*
X102528646Y-44411371D02*
X102471503Y-44382800D01*
X102471503Y-44382800D02*
X102442931Y-44325657D01*
X102442931Y-44325657D02*
X102442931Y-44297085D01*
X102442931Y-44297085D02*
X102471503Y-44239942D01*
X102471503Y-44239942D02*
X102528646Y-44211371D01*
X102528646Y-44211371D02*
X102614360Y-44211371D01*
X102614360Y-44211371D02*
X102671503Y-44239942D01*
X102957217Y-44611371D02*
X102957217Y-44211371D01*
X102957217Y-44011371D02*
X102928645Y-44039942D01*
X102928645Y-44039942D02*
X102957217Y-44068514D01*
X102957217Y-44068514D02*
X102985788Y-44039942D01*
X102985788Y-44039942D02*
X102957217Y-44011371D01*
X102957217Y-44011371D02*
X102957217Y-44068514D01*
X94087217Y-52443014D02*
X93658646Y-52443014D01*
X93872931Y-52443014D02*
X93872931Y-51693014D01*
X93872931Y-51693014D02*
X93801503Y-51800157D01*
X93801503Y-51800157D02*
X93730074Y-51871585D01*
X93730074Y-51871585D02*
X93658646Y-51907300D01*
X99225789Y-50761371D02*
X99225789Y-50161371D01*
X99225789Y-50732800D02*
X99168646Y-50761371D01*
X99168646Y-50761371D02*
X99054360Y-50761371D01*
X99054360Y-50761371D02*
X98997217Y-50732800D01*
X98997217Y-50732800D02*
X98968646Y-50704228D01*
X98968646Y-50704228D02*
X98940074Y-50647085D01*
X98940074Y-50647085D02*
X98940074Y-50475657D01*
X98940074Y-50475657D02*
X98968646Y-50418514D01*
X98968646Y-50418514D02*
X98997217Y-50389942D01*
X98997217Y-50389942D02*
X99054360Y-50361371D01*
X99054360Y-50361371D02*
X99168646Y-50361371D01*
X99168646Y-50361371D02*
X99225789Y-50389942D01*
X99511503Y-50761371D02*
X99511503Y-50361371D01*
X99511503Y-50161371D02*
X99482931Y-50189942D01*
X99482931Y-50189942D02*
X99511503Y-50218514D01*
X99511503Y-50218514D02*
X99540074Y-50189942D01*
X99540074Y-50189942D02*
X99511503Y-50161371D01*
X99511503Y-50161371D02*
X99511503Y-50218514D01*
X99768645Y-50732800D02*
X99825788Y-50761371D01*
X99825788Y-50761371D02*
X99940074Y-50761371D01*
X99940074Y-50761371D02*
X99997217Y-50732800D01*
X99997217Y-50732800D02*
X100025788Y-50675657D01*
X100025788Y-50675657D02*
X100025788Y-50647085D01*
X100025788Y-50647085D02*
X99997217Y-50589942D01*
X99997217Y-50589942D02*
X99940074Y-50561371D01*
X99940074Y-50561371D02*
X99854360Y-50561371D01*
X99854360Y-50561371D02*
X99797217Y-50532800D01*
X99797217Y-50532800D02*
X99768645Y-50475657D01*
X99768645Y-50475657D02*
X99768645Y-50447085D01*
X99768645Y-50447085D02*
X99797217Y-50389942D01*
X99797217Y-50389942D02*
X99854360Y-50361371D01*
X99854360Y-50361371D02*
X99940074Y-50361371D01*
X99940074Y-50361371D02*
X99997217Y-50389942D01*
X100282931Y-50361371D02*
X100282931Y-50961371D01*
X100282931Y-50389942D02*
X100340074Y-50361371D01*
X100340074Y-50361371D02*
X100454359Y-50361371D01*
X100454359Y-50361371D02*
X100511502Y-50389942D01*
X100511502Y-50389942D02*
X100540074Y-50418514D01*
X100540074Y-50418514D02*
X100568645Y-50475657D01*
X100568645Y-50475657D02*
X100568645Y-50647085D01*
X100568645Y-50647085D02*
X100540074Y-50704228D01*
X100540074Y-50704228D02*
X100511502Y-50732800D01*
X100511502Y-50732800D02*
X100454359Y-50761371D01*
X100454359Y-50761371D02*
X100340074Y-50761371D01*
X100340074Y-50761371D02*
X100282931Y-50732800D01*
X101298646Y-45657300D02*
X101370074Y-45693014D01*
X101370074Y-45693014D02*
X101512931Y-45693014D01*
X101512931Y-45693014D02*
X101584360Y-45657300D01*
X101584360Y-45657300D02*
X101620074Y-45585871D01*
X101620074Y-45585871D02*
X101620074Y-45550157D01*
X101620074Y-45550157D02*
X101584360Y-45478728D01*
X101584360Y-45478728D02*
X101512931Y-45443014D01*
X101512931Y-45443014D02*
X101405789Y-45443014D01*
X101405789Y-45443014D02*
X101334360Y-45407300D01*
X101334360Y-45407300D02*
X101298646Y-45335871D01*
X101298646Y-45335871D02*
X101298646Y-45300157D01*
X101298646Y-45300157D02*
X101334360Y-45228728D01*
X101334360Y-45228728D02*
X101405789Y-45193014D01*
X101405789Y-45193014D02*
X101512931Y-45193014D01*
X101512931Y-45193014D02*
X101584360Y-45228728D01*
X102262932Y-45693014D02*
X102262932Y-44943014D01*
X102262932Y-45657300D02*
X102191503Y-45693014D01*
X102191503Y-45693014D02*
X102048646Y-45693014D01*
X102048646Y-45693014D02*
X101977217Y-45657300D01*
X101977217Y-45657300D02*
X101941503Y-45621585D01*
X101941503Y-45621585D02*
X101905789Y-45550157D01*
X101905789Y-45550157D02*
X101905789Y-45335871D01*
X101905789Y-45335871D02*
X101941503Y-45264442D01*
X101941503Y-45264442D02*
X101977217Y-45228728D01*
X101977217Y-45228728D02*
X102048646Y-45193014D01*
X102048646Y-45193014D02*
X102191503Y-45193014D01*
X102191503Y-45193014D02*
X102262932Y-45228728D01*
X102941503Y-45693014D02*
X102941503Y-45300157D01*
X102941503Y-45300157D02*
X102905788Y-45228728D01*
X102905788Y-45228728D02*
X102834360Y-45193014D01*
X102834360Y-45193014D02*
X102691503Y-45193014D01*
X102691503Y-45193014D02*
X102620074Y-45228728D01*
X102941503Y-45657300D02*
X102870074Y-45693014D01*
X102870074Y-45693014D02*
X102691503Y-45693014D01*
X102691503Y-45693014D02*
X102620074Y-45657300D01*
X102620074Y-45657300D02*
X102584360Y-45585871D01*
X102584360Y-45585871D02*
X102584360Y-45514442D01*
X102584360Y-45514442D02*
X102620074Y-45443014D01*
X102620074Y-45443014D02*
X102691503Y-45407300D01*
X102691503Y-45407300D02*
X102870074Y-45407300D01*
X102870074Y-45407300D02*
X102941503Y-45371585D01*
X96331503Y-40754442D02*
X96260074Y-40718728D01*
X96260074Y-40718728D02*
X96224360Y-40683014D01*
X96224360Y-40683014D02*
X96188646Y-40611585D01*
X96188646Y-40611585D02*
X96188646Y-40575871D01*
X96188646Y-40575871D02*
X96224360Y-40504442D01*
X96224360Y-40504442D02*
X96260074Y-40468728D01*
X96260074Y-40468728D02*
X96331503Y-40433014D01*
X96331503Y-40433014D02*
X96474360Y-40433014D01*
X96474360Y-40433014D02*
X96545789Y-40468728D01*
X96545789Y-40468728D02*
X96581503Y-40504442D01*
X96581503Y-40504442D02*
X96617217Y-40575871D01*
X96617217Y-40575871D02*
X96617217Y-40611585D01*
X96617217Y-40611585D02*
X96581503Y-40683014D01*
X96581503Y-40683014D02*
X96545789Y-40718728D01*
X96545789Y-40718728D02*
X96474360Y-40754442D01*
X96474360Y-40754442D02*
X96331503Y-40754442D01*
X96331503Y-40754442D02*
X96260074Y-40790157D01*
X96260074Y-40790157D02*
X96224360Y-40825871D01*
X96224360Y-40825871D02*
X96188646Y-40897300D01*
X96188646Y-40897300D02*
X96188646Y-41040157D01*
X96188646Y-41040157D02*
X96224360Y-41111585D01*
X96224360Y-41111585D02*
X96260074Y-41147300D01*
X96260074Y-41147300D02*
X96331503Y-41183014D01*
X96331503Y-41183014D02*
X96474360Y-41183014D01*
X96474360Y-41183014D02*
X96545789Y-41147300D01*
X96545789Y-41147300D02*
X96581503Y-41111585D01*
X96581503Y-41111585D02*
X96617217Y-41040157D01*
X96617217Y-41040157D02*
X96617217Y-40897300D01*
X96617217Y-40897300D02*
X96581503Y-40825871D01*
X96581503Y-40825871D02*
X96545789Y-40790157D01*
X96545789Y-40790157D02*
X96474360Y-40754442D01*
X101985789Y-47657300D02*
X101914360Y-47693014D01*
X101914360Y-47693014D02*
X101771503Y-47693014D01*
X101771503Y-47693014D02*
X101700074Y-47657300D01*
X101700074Y-47657300D02*
X101664360Y-47621585D01*
X101664360Y-47621585D02*
X101628646Y-47550157D01*
X101628646Y-47550157D02*
X101628646Y-47335871D01*
X101628646Y-47335871D02*
X101664360Y-47264442D01*
X101664360Y-47264442D02*
X101700074Y-47228728D01*
X101700074Y-47228728D02*
X101771503Y-47193014D01*
X101771503Y-47193014D02*
X101914360Y-47193014D01*
X101914360Y-47193014D02*
X101985789Y-47228728D01*
X102271503Y-47657300D02*
X102342931Y-47693014D01*
X102342931Y-47693014D02*
X102485788Y-47693014D01*
X102485788Y-47693014D02*
X102557217Y-47657300D01*
X102557217Y-47657300D02*
X102592931Y-47585871D01*
X102592931Y-47585871D02*
X102592931Y-47550157D01*
X102592931Y-47550157D02*
X102557217Y-47478728D01*
X102557217Y-47478728D02*
X102485788Y-47443014D01*
X102485788Y-47443014D02*
X102378646Y-47443014D01*
X102378646Y-47443014D02*
X102307217Y-47407300D01*
X102307217Y-47407300D02*
X102271503Y-47335871D01*
X102271503Y-47335871D02*
X102271503Y-47300157D01*
X102271503Y-47300157D02*
X102307217Y-47228728D01*
X102307217Y-47228728D02*
X102378646Y-47193014D01*
X102378646Y-47193014D02*
X102485788Y-47193014D01*
X102485788Y-47193014D02*
X102557217Y-47228728D01*
X96278646Y-51894442D02*
X96314360Y-51858728D01*
X96314360Y-51858728D02*
X96385789Y-51823014D01*
X96385789Y-51823014D02*
X96564360Y-51823014D01*
X96564360Y-51823014D02*
X96635789Y-51858728D01*
X96635789Y-51858728D02*
X96671503Y-51894442D01*
X96671503Y-51894442D02*
X96707217Y-51965871D01*
X96707217Y-51965871D02*
X96707217Y-52037300D01*
X96707217Y-52037300D02*
X96671503Y-52144442D01*
X96671503Y-52144442D02*
X96242931Y-52573014D01*
X96242931Y-52573014D02*
X96707217Y-52573014D01*
X99555789Y-47713014D02*
X99555789Y-46963014D01*
X99555789Y-47677300D02*
X99484360Y-47713014D01*
X99484360Y-47713014D02*
X99341503Y-47713014D01*
X99341503Y-47713014D02*
X99270074Y-47677300D01*
X99270074Y-47677300D02*
X99234360Y-47641585D01*
X99234360Y-47641585D02*
X99198646Y-47570157D01*
X99198646Y-47570157D02*
X99198646Y-47355871D01*
X99198646Y-47355871D02*
X99234360Y-47284442D01*
X99234360Y-47284442D02*
X99270074Y-47248728D01*
X99270074Y-47248728D02*
X99341503Y-47213014D01*
X99341503Y-47213014D02*
X99484360Y-47213014D01*
X99484360Y-47213014D02*
X99555789Y-47248728D01*
X100234360Y-47677300D02*
X100162931Y-47713014D01*
X100162931Y-47713014D02*
X100020074Y-47713014D01*
X100020074Y-47713014D02*
X99948645Y-47677300D01*
X99948645Y-47677300D02*
X99912931Y-47641585D01*
X99912931Y-47641585D02*
X99877217Y-47570157D01*
X99877217Y-47570157D02*
X99877217Y-47355871D01*
X99877217Y-47355871D02*
X99912931Y-47284442D01*
X99912931Y-47284442D02*
X99948645Y-47248728D01*
X99948645Y-47248728D02*
X100020074Y-47213014D01*
X100020074Y-47213014D02*
X100162931Y-47213014D01*
X100162931Y-47213014D02*
X100234360Y-47248728D01*
X101584360Y-49933014D02*
X101584360Y-49433014D01*
X101584360Y-49575871D02*
X101620074Y-49504442D01*
X101620074Y-49504442D02*
X101655789Y-49468728D01*
X101655789Y-49468728D02*
X101727217Y-49433014D01*
X101727217Y-49433014D02*
X101798646Y-49433014D01*
X102012932Y-49897300D02*
X102084360Y-49933014D01*
X102084360Y-49933014D02*
X102227217Y-49933014D01*
X102227217Y-49933014D02*
X102298646Y-49897300D01*
X102298646Y-49897300D02*
X102334360Y-49825871D01*
X102334360Y-49825871D02*
X102334360Y-49790157D01*
X102334360Y-49790157D02*
X102298646Y-49718728D01*
X102298646Y-49718728D02*
X102227217Y-49683014D01*
X102227217Y-49683014D02*
X102120075Y-49683014D01*
X102120075Y-49683014D02*
X102048646Y-49647300D01*
X102048646Y-49647300D02*
X102012932Y-49575871D01*
X102012932Y-49575871D02*
X102012932Y-49540157D01*
X102012932Y-49540157D02*
X102048646Y-49468728D01*
X102048646Y-49468728D02*
X102120075Y-49433014D01*
X102120075Y-49433014D02*
X102227217Y-49433014D01*
X102227217Y-49433014D02*
X102298646Y-49468728D01*
X102548646Y-49433014D02*
X102834360Y-49433014D01*
X102655789Y-49183014D02*
X102655789Y-49825871D01*
X102655789Y-49825871D02*
X102691503Y-49897300D01*
X102691503Y-49897300D02*
X102762932Y-49933014D01*
X102762932Y-49933014D02*
X102834360Y-49933014D01*
X98960074Y-44592800D02*
X99017217Y-44621371D01*
X99017217Y-44621371D02*
X99131503Y-44621371D01*
X99131503Y-44621371D02*
X99188646Y-44592800D01*
X99188646Y-44592800D02*
X99217217Y-44535657D01*
X99217217Y-44535657D02*
X99217217Y-44507085D01*
X99217217Y-44507085D02*
X99188646Y-44449942D01*
X99188646Y-44449942D02*
X99131503Y-44421371D01*
X99131503Y-44421371D02*
X99045789Y-44421371D01*
X99045789Y-44421371D02*
X98988646Y-44392800D01*
X98988646Y-44392800D02*
X98960074Y-44335657D01*
X98960074Y-44335657D02*
X98960074Y-44307085D01*
X98960074Y-44307085D02*
X98988646Y-44249942D01*
X98988646Y-44249942D02*
X99045789Y-44221371D01*
X99045789Y-44221371D02*
X99131503Y-44221371D01*
X99131503Y-44221371D02*
X99188646Y-44249942D01*
X99731503Y-44592800D02*
X99674360Y-44621371D01*
X99674360Y-44621371D02*
X99560074Y-44621371D01*
X99560074Y-44621371D02*
X99502931Y-44592800D01*
X99502931Y-44592800D02*
X99474360Y-44564228D01*
X99474360Y-44564228D02*
X99445788Y-44507085D01*
X99445788Y-44507085D02*
X99445788Y-44335657D01*
X99445788Y-44335657D02*
X99474360Y-44278514D01*
X99474360Y-44278514D02*
X99502931Y-44249942D01*
X99502931Y-44249942D02*
X99560074Y-44221371D01*
X99560074Y-44221371D02*
X99674360Y-44221371D01*
X99674360Y-44221371D02*
X99731503Y-44249942D01*
X100074360Y-44621371D02*
X100017217Y-44592800D01*
X100017217Y-44592800D02*
X99988646Y-44535657D01*
X99988646Y-44535657D02*
X99988646Y-44021371D01*
X100302932Y-44621371D02*
X100302932Y-44021371D01*
X100360075Y-44392800D02*
X100531503Y-44621371D01*
X100531503Y-44221371D02*
X100302932Y-44449942D01*
X93682931Y-40443014D02*
X94182931Y-40443014D01*
X94182931Y-40443014D02*
X93861503Y-41193014D01*
X99038646Y-45627300D02*
X99110074Y-45663014D01*
X99110074Y-45663014D02*
X99252931Y-45663014D01*
X99252931Y-45663014D02*
X99324360Y-45627300D01*
X99324360Y-45627300D02*
X99360074Y-45555871D01*
X99360074Y-45555871D02*
X99360074Y-45520157D01*
X99360074Y-45520157D02*
X99324360Y-45448728D01*
X99324360Y-45448728D02*
X99252931Y-45413014D01*
X99252931Y-45413014D02*
X99145789Y-45413014D01*
X99145789Y-45413014D02*
X99074360Y-45377300D01*
X99074360Y-45377300D02*
X99038646Y-45305871D01*
X99038646Y-45305871D02*
X99038646Y-45270157D01*
X99038646Y-45270157D02*
X99074360Y-45198728D01*
X99074360Y-45198728D02*
X99145789Y-45163014D01*
X99145789Y-45163014D02*
X99252931Y-45163014D01*
X99252931Y-45163014D02*
X99324360Y-45198728D01*
X100002932Y-45627300D02*
X99931503Y-45663014D01*
X99931503Y-45663014D02*
X99788646Y-45663014D01*
X99788646Y-45663014D02*
X99717217Y-45627300D01*
X99717217Y-45627300D02*
X99681503Y-45591585D01*
X99681503Y-45591585D02*
X99645789Y-45520157D01*
X99645789Y-45520157D02*
X99645789Y-45305871D01*
X99645789Y-45305871D02*
X99681503Y-45234442D01*
X99681503Y-45234442D02*
X99717217Y-45198728D01*
X99717217Y-45198728D02*
X99788646Y-45163014D01*
X99788646Y-45163014D02*
X99931503Y-45163014D01*
X99931503Y-45163014D02*
X100002932Y-45198728D01*
X100431503Y-45663014D02*
X100360074Y-45627300D01*
X100360074Y-45627300D02*
X100324360Y-45555871D01*
X100324360Y-45555871D02*
X100324360Y-44913014D01*
D12*
X88958095Y-34984819D02*
X88958095Y-33984819D01*
X88958095Y-34461009D02*
X89529523Y-34461009D01*
X89529523Y-34984819D02*
X89529523Y-33984819D01*
X90529523Y-34984819D02*
X89958095Y-34984819D01*
X90243809Y-34984819D02*
X90243809Y-33984819D01*
X90243809Y-33984819D02*
X90148571Y-34127676D01*
X90148571Y-34127676D02*
X90053333Y-34222914D01*
X90053333Y-34222914D02*
X89958095Y-34270533D01*
D10*
%TO.C,J2*%
X98500000Y-43410000D02*
X103230000Y-43410000D01*
X98530000Y-46495000D02*
X103220000Y-46495000D01*
X98530000Y-48440000D02*
X103150000Y-48440000D01*
X100875000Y-41870000D02*
X100875000Y-51120000D01*
X98530000Y-41870000D02*
X103220000Y-41870000D01*
X103220000Y-41870000D02*
X103220000Y-51120000D01*
X103220000Y-51120000D02*
X98530000Y-51120000D01*
X98530000Y-51120000D02*
X98530000Y-41870000D01*
%TD*%
%LPC*%
D13*
%TO.C,H2*%
X94730000Y-58560000D03*
%TD*%
D14*
%TO.C,J2*%
X93860000Y-50250000D03*
X96400000Y-50250000D03*
X93860000Y-47710000D03*
X96400000Y-47710000D03*
X93860000Y-45170000D03*
X96400000Y-45170000D03*
D15*
X93860000Y-42630000D03*
D14*
X96400000Y-42630000D03*
%TD*%
D13*
%TO.C,H1*%
X94730000Y-34240000D03*
%TD*%
D16*
%TO.C,C1*%
X114040000Y-46910000D03*
D17*
X115840000Y-46910000D03*
%TD*%
D16*
%TO.C,C2*%
X114040000Y-44570000D03*
D17*
X115840000Y-44570000D03*
%TD*%
D16*
%TO.C,C3*%
X114060000Y-49270000D03*
D17*
X115860000Y-49270000D03*
%TD*%
%LPD*%
M02*
